Pruebas/test_sistema_completo/simulation/qsim/test_sistema_completo.msim.vcd
$comment
	File created using the following command:
		vcd file test_sistema_completo.msim.vcd -direction
$end
$date
	Thu Nov 14 11:49:02 2024
$end
$version
	ModelSim Version 2020.1
$end
$timescale
	1ps
$end

$scope module decod_control_vhd_vec_tst $end
$var wire 1 ! clk $end
$var wire 1 " cntrl_envio $end
$var wire 1 # cntrl_reset $end
$var wire 1 $ reset $end
$var wire 1 % rx_byte [7] $end
$var wire 1 & rx_byte [6] $end
$var wire 1 ' rx_byte [5] $end
$var wire 1 ( rx_byte [4] $end
$var wire 1 ) rx_byte [3] $end
$var wire 1 * rx_byte [2] $end
$var wire 1 + rx_byte [1] $end
$var wire 1 , rx_byte [0] $end
$var wire 1 - rx_dv_i $end

$scope module i1 $end
$var wire 1 . gnd $end
$var wire 1 / vcc $end
$var wire 1 0 unknown $end
$var wire 1 1 devoe $end
$var wire 1 2 devclrn $end
$var wire 1 3 devpor $end
$var wire 1 4 ww_devoe $end
$var wire 1 5 ww_devclrn $end
$var wire 1 6 ww_devpor $end
$var wire 1 7 ww_clk $end
$var wire 1 8 ww_reset $end
$var wire 1 9 ww_rx_dv_i $end
$var wire 1 : ww_rx_byte [7] $end
$var wire 1 ; ww_rx_byte [6] $end
$var wire 1 < ww_rx_byte [5] $end
$var wire 1 = ww_rx_byte [4] $end
$var wire 1 > ww_rx_byte [3] $end
$var wire 1 ? ww_rx_byte [2] $end
$var wire 1 @ ww_rx_byte [1] $end
$var wire 1 A ww_rx_byte [0] $end
$var wire 1 B ww_cntrl_reset $end
$var wire 1 C ww_cntrl_envio $end
$var wire 1 D \reset~inputclkctrl_INCLK_bus\ [3] $end
$var wire 1 E \reset~inputclkctrl_INCLK_bus\ [2] $end
$var wire 1 F \reset~inputclkctrl_INCLK_bus\ [1] $end
$var wire 1 G \reset~inputclkctrl_INCLK_bus\ [0] $end
$var wire 1 H \clk~inputclkctrl_INCLK_bus\ [3] $end
$var wire 1 I \clk~inputclkctrl_INCLK_bus\ [2] $end
$var wire 1 J \clk~inputclkctrl_INCLK_bus\ [1] $end
$var wire 1 K \clk~inputclkctrl_INCLK_bus\ [0] $end
$var wire 1 L \cntrl_reset~output_o\ $end
$var wire 1 M \cntrl_envio~output_o\ $end
$var wire 1 N \clk~input_o\ $end
$var wire 1 O \clk~inputclkctrl_outclk\ $end
$var wire 1 P \rx_byte[0]~input_o\ $end
$var wire 1 Q \rx_byte[2]~input_o\ $end
$var wire 1 R \rx_byte[1]~input_o\ $end
$var wire 1 S \rx_byte[3]~input_o\ $end
$var wire 1 T \cntrl_reset_int~0_combout\ $end
$var wire 1 U \rx_dv_i~input_o\ $end
$var wire 1 V \rx_byte[4]~input_o\ $end
$var wire 1 W \rx_byte[7]~input_o\ $end
$var wire 1 X \rx_byte[5]~input_o\ $end
$var wire 1 Y \rx_byte[6]~input_o\ $end
$var wire 1 Z \cntrl_reset_int~1_combout\ $end
$var wire 1 [ \cntrl_reset_int~2_combout\ $end
$var wire 1 \ \reset~input_o\ $end
$var wire 1 ] \reset~inputclkctrl_outclk\ $end
$var wire 1 ^ \cntrl_reset_int~q\ $end
$var wire 1 _ \cuenta_reset~1_combout\ $end
$var wire 1 ` \mantenimiento:cuenta_reset[0]~q\ $end
$var wire 1 a \cuenta_reset~0_combout\ $end
$var wire 1 b \mantenimiento:cuenta_reset[1]~q\ $end
$var wire 1 c \mantenimiento~0_combout\ $end
$var wire 1 d \mantenimiento:cntrl_reset_int_2~q\ $end
$var wire 1 e \cntrl_envio_int~1_combout\ $end
$var wire 1 f \cntrl_envio_int~0_combout\ $end
$var wire 1 g \cntrl_envio_int~2_combout\ $end
$var wire 1 h \cntrl_envio_int~q\ $end
$var wire 1 i \mantenimiento:cuenta_envio[0]~1_combout\ $end
$var wire 1 j \mantenimiento:cuenta_envio[0]~q\ $end
$var wire 1 k \mantenimiento:cuenta_envio[0]~2\ $end
$var wire 1 l \mantenimiento:cuenta_envio[1]~1_combout\ $end
$var wire 1 m \mantenimiento:cuenta_envio[1]~q\ $end
$var wire 1 n \mantenimiento:cuenta_envio[1]~2\ $end
$var wire 1 o \mantenimiento:cuenta_envio[2]~1_combout\ $end
$var wire 1 p \mantenimiento:cuenta_envio[2]~q\ $end
$var wire 1 q \mantenimiento:cuenta_envio[2]~2\ $end
$var wire 1 r \mantenimiento:cuenta_envio[3]~1_combout\ $end
$var wire 1 s \mantenimiento:cuenta_envio[3]~q\ $end
$var wire 1 t \mantenimiento:cuenta_envio[3]~2\ $end
$var wire 1 u \mantenimiento:cuenta_envio[4]~1_combout\ $end
$var wire 1 v \mantenimiento:cuenta_envio[4]~q\ $end
$var wire 1 w \mantenimiento:cuenta_envio[4]~2\ $end
$var wire 1 x \mantenimiento:cuenta_envio[5]~1_combout\ $end
$var wire 1 y \mantenimiento:cuenta_envio[5]~q\ $end
$var wire 1 z \mantenimiento:cuenta_envio[5]~2\ $end
$var wire 1 { \mantenimiento:cuenta_envio[6]~1_combout\ $end
$var wire 1 | \mantenimiento:cuenta_envio[6]~q\ $end
$var wire 1 } \mantenimiento:cuenta_envio[6]~2\ $end
$var wire 1 ~ \mantenimiento:cuenta_envio[7]~1_combout\ $end
$var wire 1 !! \mantenimiento:cuenta_envio[7]~q\ $end
$var wire 1 "! \mantenimiento:cuenta_envio[7]~2\ $end
$var wire 1 #! \mantenimiento:cuenta_envio[8]~1_combout\ $end
$var wire 1 $! \mantenimiento:cuenta_envio[8]~q\ $end
$var wire 1 %! \mantenimiento:cuenta_envio[8]~2\ $end
$var wire 1 &! \mantenimiento:cuenta_envio[9]~1_combout\ $end
$var wire 1 '! \mantenimiento:cuenta_envio[9]~q\ $end
$var wire 1 (! \mantenimiento:cuenta_envio[9]~2\ $end
$var wire 1 )! \mantenimiento:cuenta_envio[10]~1_combout\ $end
$var wire 1 *! \mantenimiento:cuenta_envio[10]~q\ $end
$var wire 1 +! \mantenimiento:cuenta_envio[10]~2\ $end
$var wire 1 ,! \mantenimiento:cuenta_envio[11]~1_combout\ $end
$var wire 1 -! \mantenimiento:cuenta_envio[11]~q\ $end
$var wire 1 .! \mantenimiento:cuenta_envio[11]~2\ $end
$var wire 1 /! \mantenimiento:cuenta_envio[12]~1_combout\ $end
$var wire 1 0! \mantenimiento:cuenta_envio[12]~q\ $end
$var wire 1 1! \mantenimiento:cuenta_envio[12]~2\ $end
$var wire 1 2! \mantenimiento:cuenta_envio[13]~1_combout\ $end
$var wire 1 3! \mantenimiento:cuenta_envio[13]~q\ $end
$var wire 1 4! \mantenimiento:cuenta_envio[13]~2\ $end
$var wire 1 5! \mantenimiento:cuenta_envio[14]~1_combout\ $end
$var wire 1 6! \mantenimiento:cuenta_envio[14]~q\ $end
$var wire 1 7! \mantenimiento:cuenta_envio[14]~2\ $end
$var wire 1 8! \mantenimiento:cuenta_envio[15]~1_combout\ $end
$var wire 1 9! \mantenimiento:cuenta_envio[15]~q\ $end
$var wire 1 :! \mantenimiento:cuenta_envio[15]~2\ $end
$var wire 1 ;! \mantenimiento:cuenta_envio[16]~1_combout\ $end
$var wire 1 <! \mantenimiento:cuenta_envio[16]~q\ $end
$var wire 1 =! \mantenimiento:cuenta_envio[16]~2\ $end
$var wire 1 >! \mantenimiento:cuenta_envio[17]~1_combout\ $end
$var wire 1 ?! \mantenimiento:cuenta_envio[17]~q\ $end
$var wire 1 @! \mantenimiento:cuenta_envio[17]~2\ $end
$var wire 1 A! \mantenimiento:cuenta_envio[18]~1_combout\ $end
$var wire 1 B! \mantenimiento:cuenta_envio[18]~q\ $end
$var wire 1 C! \mantenimiento:cuenta_envio[18]~2\ $end
$var wire 1 D! \mantenimiento:cuenta_envio[19]~1_combout\ $end
$var wire 1 E! \mantenimiento:cuenta_envio[19]~q\ $end
$var wire 1 F! \mantenimiento:cuenta_envio[19]~2\ $end
$var wire 1 G! \mantenimiento:cuenta_envio[20]~1_combout\ $end
$var wire 1 H! \mantenimiento:cuenta_envio[20]~q\ $end
$var wire 1 I! \mantenimiento:cuenta_envio[20]~2\ $end
$var wire 1 J! \mantenimiento:cuenta_envio[21]~1_combout\ $end
$var wire 1 K! \mantenimiento:cuenta_envio[21]~q\ $end
$var wire 1 L! \mantenimiento:cuenta_envio[21]~2\ $end
$var wire 1 M! \mantenimiento:cuenta_envio[22]~1_combout\ $end
$var wire 1 N! \mantenimiento:cuenta_envio[22]~q\ $end
$var wire 1 O! \mantenimiento:cuenta_envio[22]~2\ $end
$var wire 1 P! \mantenimiento:cuenta_envio[23]~1_combout\ $end
$var wire 1 Q! \mantenimiento:cuenta_envio[23]~q\ $end
$var wire 1 R! \mantenimiento~1_combout\ $end
$var wire 1 S! \LessThan1~4_combout\ $end
$var wire 1 T! \LessThan1~5_combout\ $end
$var wire 1 U! \LessThan1~6_combout\ $end
$var wire 1 V! \mantenimiento:cuenta_envio[23]~2\ $end
$var wire 1 W! \mantenimiento:cuenta_envio[24]~1_combout\ $end
$var wire 1 X! \mantenimiento:cuenta_envio[24]~q\ $end
$var wire 1 Y! \mantenimiento:cuenta_envio[24]~2\ $end
$var wire 1 Z! \mantenimiento:cuenta_envio[25]~1_combout\ $end
$var wire 1 [! \mantenimiento:cuenta_envio[25]~q\ $end
$var wire 1 \! \mantenimiento:cuenta_envio[25]~2\ $end
$var wire 1 ]! \mantenimiento:cuenta_envio[26]~1_combout\ $end
$var wire 1 ^! \mantenimiento:cuenta_envio[26]~q\ $end
$var wire 1 _! \LessThan1~0_combout\ $end
$var wire 1 `! \LessThan1~1_combout\ $end
$var wire 1 a! \LessThan1~2_combout\ $end
$var wire 1 b! \LessThan1~3_combout\ $end
$var wire 1 c! \mantenimiento~2_combout\ $end
$var wire 1 d! \mantenimiento~3_combout\ $end
$var wire 1 e! \mantenimiento:cntrl_envio_int_2~q\ $end
$var wire 1 f! \ALT_INV_reset~inputclkctrl_outclk\ $end
$var wire 1 g! \ALT_INV_mantenimiento~3_combout\ $end
$upscope $end
$upscope $end
$enddefinitions $end
#0
$dumpvars
0!
0"
0#
0$
0-
0.
1/
x0
11
12
13
14
15
16
07
08
09
0B
0C
0L
0M
0N
0O
0P
0Q
0R
0S
0T
0U
0V
0W
0X
0Y
1Z
0[
0\
0]
0^
0_
0`
0a
0b
0c
0d
0e
0f
0g
0h
1i
0j
0k
0l
0m
1n
0o
0p
0q
0r
0s
1t
0u
0v
0w
0x
0y
1z
0{
0|
0}
0~
0!!
1"!
0#!
0$!
0%!
0&!
0'!
1(!
0)!
0*!
0+!
0,!
0-!
1.!
0/!
00!
01!
02!
03!
14!
05!
06!
07!
08!
09!
1:!
0;!
0<!
0=!
0>!
0?!
1@!
0A!
0B!
0C!
0D!
0E!
1F!
0G!
0H!
0I!
0J!
0K!
1L!
0M!
0N!
0O!
0P!
0Q!
0R!
1S!
0T!
1U!
1V!
0W!
0X!
0Y!
0Z!
0[!
1\!
0]!
0^!
1_!
0`!
0a!
1b!
1c!
0d!
0e!
1f!
1g!
0%
0&
0'
0(
0)
0*
0+
0,
0:
0;
0<
0=
0>
0?
0@
0A
1H
1I
1J
0K
1D
1E
1F
0G
$end
#10000
1!
17
1N
1K
1O
#20000
0!
07
0N
0K
0O
#30000
1!
17
1N
1K
1O
#40000
0!
07
0N
0K
0O
#50000
1!
17
1N
1K
1O
#60000
0!
1-
1,
07
19
1A
1P
1U
0N
0K
1T
1[
0O
#70000
1!
17
1N
1K
1O
1^
1_
1c
#80000
0!
0-
07
09
0U
0N
0K
0[
0O
#90000
1!
17
1N
1K
1O
0^
1`
1d
0_
1a
1L
1B
1#
#100000
0!
07
0N
0K
0O
#110000
1!
17
1N
1K
1O
0`
1b
0c
0a
#120000
0!
0,
07
0A
0P
0N
0K
0T
0O
#130000
1!
17
1N
1K
1O
0b
0d
0L
0B
0#
#140000
0!
07
0N
0K
0O
#150000
1!
17
1N
1K
1O
#160000
0!
07
0N
0K
0O
#170000
1!
17
1N
1K
1O
#180000
0!
07
0N
0K
0O
#190000
1!
17
1N
1K
1O
#200000
0!
07
0N
0K
0O
#210000
1!
17
1N
1K
1O
#220000
0!
07
0N
0K
0O
#230000
1!
17
1N
1K
1O
#240000
0!
07
0N
0K
0O
#250000
1!
17
1N
1K
1O
#260000
0!
07
0N
0K
0O
#270000
1!
17
1N
1K
1O
#280000
0!
07
0N
0K
0O
#290000
1!
17
1N
1K
1O
#300000
0!
07
0N
0K
0O
#310000
1!
17
1N
1K
1O
#320000
0!
1,
1-
07
1A
19
1U
1P
0N
0K
1T
1[
0O
#330000
1!
17
1N
1K
1O
1^
1_
1c
#340000
0!
0-
07
09
0U
0N
0K
0[
0O
#350000
1!
17
1N
1K
1O
0^
1`
1d
0_
1a
1L
1B
1#
#360000
0!
07
0N
0K
0O
#370000
1!
17
1N
1K
1O
0`
1b
0c
0a
#380000
0!
0,
07
0A
0P
0N
0K
0T
0O
#390000
1!
17
1N
1K
1O
0b
0d
0L
0B
0#
#400000
0!
07
0N
0K
0O
#410000
1!
17
1N
1K
1O
#420000
0!
07
0N
0K
0O
#430000
1!
17
1N
1K
1O
#440000
0!
07
0N
0K
0O
#450000
1!
17
1N
1K
1O
#460000
0!
1,
1-
1%
1&
1'
1(
1)
1*
1+
07
1A
1@
1?
1>
1=
1<
1;
1:
19
1U
1W
1Y
1X
1V
1S
1Q
1R
1P
0N
0K
1f
0Z
1e
1g
0O
#470000
1!
17
1N
1K
1O
1h
1d!
0g!
#480000
0!
0-
07
09
0U
0N
0K
0g
0O
#490000
1!
17
1N
1K
1O
0h
1j
1e!
0i
1k
1l
1M
1C
1"
#500000
0!
07
0N
0K
0O
#510000
1!
17
1N
1K
1O
0j
1m
0l
0n
1i
0k
1l
1n
1o
0o
#520000
0!
07
0N
0K
0O
#530000
1!
0,
0%
0&
0'
0(
0)
0*
0+
17
0A
0@
0?
0>
0=
0<
0;
0:
0W
0Y
0X
0V
0S
0Q
0R
0P
1N
1K
0f
1Z
0e
1O
1j
0i
1k
0l
0n
1o
#540000
0!
07
0N
0K
0O
#550000
1!
17
1N
1K
1O
0j
0m
1p
0o
1q
1l
1n
1i
0k
0l
1o
0q
1r
0r
#560000
0!
07
0N
0K
0O
#570000
1!
17
1N
1K
1O
1j
0i
1k
1l
#580000
0!
07
0N
0K
0O
#590000
1!
17
1N
1K
1O
0j
1m
0l
0n
1i
0k
1l
1n
0o
1q
1r
1o
0q
0r
#600000
0!
07
0N
0K
0O
#610000
1!
17
1N
1K
1O
1j
0i
1k
0l
0n
0o
1q
1r
#620000
0!
1$
07
18
1\
0N
1G
0K
0O
1]
0f!
0j
0m
0p
0e!
0d!
1o
0q
1l
1n
1i
0k
1g!
0l
0o
0r
0M
0C
0"
#630000
1!
17
1N
1K
1O
#640000
0!
0$
07
08
0\
0N
0G
0K
0O
0]
1f!
#650000
1!
17
1N
1K
1O
#660000
0!
07
0N
0K
0O
#670000
1!
17
1N
1K
1O
#680000
0!
07
0N
0K
0O
#690000
1!
17
1N
1K
1O
#700000
0!
07
0N
0K
0O
#710000
1!
17
1N
1K
1O
#720000
0!
07
0N
0K
0O
#730000
1!
17
1N
1K
1O
#740000
0!
07
0N
0K
0O
#750000
1!
17
1N
1K
1O
#760000
0!
07
0N
0K
0O
#770000
1!
17
1N
1K
1O
#780000
0!
07
0N
0K
0O
#790000
1!
17
1N
1K
1O
#800000
0!
07
0N
0K
0O
#810000
1!
17
1N
1K
1O
#820000
0!
07
0N
0K
0O
#830000
1!
17
1N
1K
1O
#840000
0!
07
0N
0K
0O
#850000
1!
17
1N
1K
1O
#860000
0!
07
0N
0K
0O
#870000
1!
17
1N
1K
1O
#880000
0!
07
0N
0K
0O
#890000
1!
17
1N
1K
1O
#900000
0!
07
0N
0K
0O
#910000
1!
17
1N
1K
1O
#920000
0!
07
0N
0K
0O
#930000
1!
17
1N
1K
1O
#940000
0!
07
0N
0K
0O
#950000
1!
17
1N
1K
1O
#960000
0!
07
0N
0K
0O
#970000
1!
17
1N
1K
1O
#980000
0!
07
0N
0K
0O
#990000
1!
17
1N
1K
1O
