Pruebas/test_sistema_completo/programador/simulation/qsim/programador.msim.vcd
$comment
	File created using the following command:
		vcd file programador.msim.vcd -direction
$end
$date
	Wed May 29 19:25:48 2024
$end
$version
	Questa Intel Starter FPGA Edition Version 2023.3
$end
$timescale
	1ps
$end

$scope module block1_vhd_vec_tst $end
$var wire 1 ! Buisy_int $end
$var wire 1 " clk $end
$var wire 1 # CLK_int $end
$var wire 1 $ clk_out $end
$var wire 1 % Data [7] $end
$var wire 1 & Data [6] $end
$var wire 1 ' Data [5] $end
$var wire 1 ( Data [4] $end
$var wire 1 ) Data [3] $end
$var wire 1 * Data [2] $end
$var wire 1 + Data [1] $end
$var wire 1 , Data [0] $end
$var wire 1 - DONE $end
$var wire 1 . ERR_int $end
$var wire 1 / R_W_iknt $end
$var wire 1 0 Res_int $end
$var wire 1 1 reset $end
$var wire 1 2 reset_camara $end
$var wire 1 3 S_T_int $end
$var wire 1 4 sca $end
$var wire 1 5 sda $end
$var wire 1 6 start $end
$var wire 1 7 stop_int $end
$var wire 1 8 trigg $end

$scope module i1 $end
$var wire 1 9 gnd $end
$var wire 1 : vcc $end
$var wire 1 ; unknown $end
$var wire 1 < devoe $end
$var wire 1 = devclrn $end
$var wire 1 > devpor $end
$var wire 1 ? ww_devoe $end
$var wire 1 @ ww_devclrn $end
$var wire 1 A ww_devpor $end
$var wire 1 B ww_DONE $end
$var wire 1 C ww_clk $end
$var wire 1 D ww_start $end
$var wire 1 E ww_reset $end
$var wire 1 F ww_sca $end
$var wire 1 G ww_trigg $end
$var wire 1 H ww_clk_out $end
$var wire 1 I ww_reset_camara $end
$var wire 1 J ww_Res_int $end
$var wire 1 K ww_stop_int $end
$var wire 1 L ww_R_W_iknt $end
$var wire 1 M ww_S_T_int $end
$var wire 1 N ww_CLK_int $end
$var wire 1 O ww_Buisy_int $end
$var wire 1 P ww_ERR_int $end
$var wire 1 Q ww_Data [7] $end
$var wire 1 R ww_Data [6] $end
$var wire 1 S ww_Data [5] $end
$var wire 1 T ww_Data [4] $end
$var wire 1 U ww_Data [3] $end
$var wire 1 V ww_Data [2] $end
$var wire 1 W ww_Data [1] $end
$var wire 1 X ww_Data [0] $end
$var wire 1 Y \inst|clk_int_2~clkctrl_INCLK_bus\ [3] $end
$var wire 1 Z \inst|clk_int_2~clkctrl_INCLK_bus\ [2] $end
$var wire 1 [ \inst|clk_int_2~clkctrl_INCLK_bus\ [1] $end
$var wire 1 \ \inst|clk_int_2~clkctrl_INCLK_bus\ [0] $end
$var wire 1 ] \inst|clk_int~clkctrl_INCLK_bus\ [3] $end
$var wire 1 ^ \inst|clk_int~clkctrl_INCLK_bus\ [2] $end
$var wire 1 _ \inst|clk_int~clkctrl_INCLK_bus\ [1] $end
$var wire 1 ` \inst|clk_int~clkctrl_INCLK_bus\ [0] $end
$var wire 1 a \clk~inputclkctrl_INCLK_bus\ [3] $end
$var wire 1 b \clk~inputclkctrl_INCLK_bus\ [2] $end
$var wire 1 c \clk~inputclkctrl_INCLK_bus\ [1] $end
$var wire 1 d \clk~inputclkctrl_INCLK_bus\ [0] $end
$var wire 1 e \sca~output_o\ $end
$var wire 1 f \sda~output_o\ $end
$var wire 1 g \DONE~output_o\ $end
$var wire 1 h \trigg~output_o\ $end
$var wire 1 i \clk_out~output_o\ $end
$var wire 1 j \reset_camara~output_o\ $end
$var wire 1 k \Res_int~output_o\ $end
$var wire 1 l \stop_int~output_o\ $end
$var wire 1 m \R_W_iknt~output_o\ $end
$var wire 1 n \S_T_int~output_o\ $end
$var wire 1 o \CLK_int~output_o\ $end
$var wire 1 p \Buisy_int~output_o\ $end
$var wire 1 q \ERR_int~output_o\ $end
$var wire 1 r \Data[7]~output_o\ $end
$var wire 1 s \Data[6]~output_o\ $end
$var wire 1 t \Data[5]~output_o\ $end
$var wire 1 u \Data[4]~output_o\ $end
$var wire 1 v \Data[3]~output_o\ $end
$var wire 1 w \Data[2]~output_o\ $end
$var wire 1 x \Data[1]~output_o\ $end
$var wire 1 y \Data[0]~output_o\ $end
$var wire 1 z \clk~input_o\ $end
$var wire 1 { \clk~inputclkctrl_outclk\ $end
$var wire 1 | \inst|cuenta_int[1]~1_combout\ $end
$var wire 1 } \inst|cuenta_int~2_combout\ $end
$var wire 1 ~ \inst|cuenta_int~0_combout\ $end
$var wire 1 !! \inst|clk_int~0_combout\ $end
$var wire 1 "! \inst|clk_int~feeder_combout\ $end
$var wire 1 #! \inst|clk_int~q\ $end
$var wire 1 $! \inst|clk_int~clkctrl_outclk\ $end
$var wire 1 %! \inst|cuenta_int_2~1_combout\ $end
$var wire 1 &! \inst|cuenta_int_2~0_combout\ $end
$var wire 1 '! \inst|Add1~0_combout\ $end
$var wire 1 (! \inst|cuenta_int_2~2_combout\ $end
$var wire 1 )! \inst|Equal1~0_combout\ $end
$var wire 1 *! \inst|clk_int_2~0_combout\ $end
$var wire 1 +! \inst|clk_int_2~feeder_combout\ $end
$var wire 1 ,! \inst|clk_int_2~q\ $end
$var wire 1 -! \inst|clk_int_2~clkctrl_outclk\ $end
$var wire 1 .! \start~input_o\ $end
$var wire 1 /! \inst|state.idle~0_combout\ $end
$var wire 1 0! \inst|state.idle~feeder_combout\ $end
$var wire 1 1! \reset~input_o\ $end
$var wire 1 2! \inst1|state.ack_2~q\ $end
$var wire 1 3! \sda~input_o\ $end
$var wire 1 4! \inst1|state.error~0_combout\ $end
$var wire 1 5! \inst1|state.error~q\ $end
$var wire 1 6! \inst|count[0]~1_combout\ $end
$var wire 1 7! \inst|state.idle~q\ $end
$var wire 1 8! \inst|count[3]~0_combout\ $end
$var wire 1 9! \inst|WideOr18~0_combout\ $end
$var wire 1 :! \inst|WideOr18~1_combout\ $end
$var wire 1 ;! \inst|Add2~0_combout\ $end
$var wire 1 <! \inst|Selector24~0_combout\ $end
$var wire 1 =! \inst|count[0]~2_combout\ $end
$var wire 1 >! \inst|Add2~1\ $end
$var wire 1 ?! \inst|Add2~2_combout\ $end
$var wire 1 @! \inst|Selector23~0_combout\ $end
$var wire 1 A! \inst|Add2~3\ $end
$var wire 1 B! \inst|Add2~4_combout\ $end
$var wire 1 C! \inst|Selector22~0_combout\ $end
$var wire 1 D! \inst|Add2~5\ $end
$var wire 1 E! \inst|Add2~6_combout\ $end
$var wire 1 F! \inst|Selector21~0_combout\ $end
$var wire 1 G! \inst|Add2~7\ $end
$var wire 1 H! \inst|Add2~8_combout\ $end
$var wire 1 I! \inst|Selector20~0_combout\ $end
$var wire 1 J! \inst|Add2~9\ $end
$var wire 1 K! \inst|Add2~10_combout\ $end
$var wire 1 L! \inst|Selector19~0_combout\ $end
$var wire 1 M! \inst|Add2~11\ $end
$var wire 1 N! \inst|Add2~12_combout\ $end
$var wire 1 O! \inst|Selector18~0_combout\ $end
$var wire 1 P! \inst|Add2~13\ $end
$var wire 1 Q! \inst|Add2~14_combout\ $end
$var wire 1 R! \inst|Selector17~0_combout\ $end
$var wire 1 S! \inst|Add2~15\ $end
$var wire 1 T! \inst|Add2~16_combout\ $end
$var wire 1 U! \inst|Selector1~0_combout\ $end
$var wire 1 V! \inst|state.dp_07~q\ $end
$var wire 1 W! \inst|Selector2~0_combout\ $end
$var wire 1 X! \inst|state.dw_07~q\ $end
$var wire 1 Y! \inst|Selector3~0_combout\ $end
$var wire 1 Z! \inst|state.dp_00~q\ $end
$var wire 1 [! \inst|Selector4~0_combout\ $end
$var wire 1 \! \inst|state.dw_00~q\ $end
$var wire 1 ]! \inst|Selector5~0_combout\ $end
$var wire 1 ^! \inst|state.dp_02~q\ $end
$var wire 1 _! \inst|Selector6~0_combout\ $end
$var wire 1 `! \inst|state.dw_02~q\ $end
$var wire 1 a! \inst|state.stop_1~q\ $end
$var wire 1 b! \inst|state.dp_BA_2~q\ $end
$var wire 1 c! \inst|Selector9~0_combout\ $end
$var wire 1 d! \inst|state.dp_1E~q\ $end
$var wire 1 e! \inst|Selector10~0_combout\ $end
$var wire 1 f! \inst|state.dw_1E~q\ $end
$var wire 1 g! \inst|Selector11~0_combout\ $end
$var wire 1 h! \inst|state.dp_81~q\ $end
$var wire 1 i! \inst|Selector12~0_combout\ $end
$var wire 1 j! \inst|state.dw_81~q\ $end
$var wire 1 k! \inst|Selector13~0_combout\ $end
$var wire 1 l! \inst|state.dp_00_2~q\ $end
$var wire 1 m! \inst|Selector14~0_combout\ $end
$var wire 1 n! \inst|state.dw_00_2~q\ $end
$var wire 1 o! \inst|state.stop_2~feeder_combout\ $end
$var wire 1 p! \inst|state.stop_2~q\ $end
$var wire 1 q! \inst|stop~combout\ $end
$var wire 1 r! \inst1|state~14_combout\ $end
$var wire 1 s! \inst1|state~15_combout\ $end
$var wire 1 t! \inst1|Selector3~0_combout\ $end
$var wire 1 u! \inst1|state.idle_2~q\ $end
$var wire 1 v! \inst1|buisy~0_combout\ $end
$var wire 1 w! \inst|Selector0~0_combout\ $end
$var wire 1 x! \inst|state.dp_BA~q\ $end
$var wire 1 y! \inst|WideOr18~2_combout\ $end
$var wire 1 z! \inst1|state~17_combout\ $end
$var wire 1 {! \inst1|state.stop_1~q\ $end
$var wire 1 |! \inst1|state.stop_2~q\ $end
$var wire 1 }! \inst1|Selector0~0_combout\ $end
$var wire 1 ~! \inst1|state.idle~q\ $end
$var wire 1 !" \inst1|state~18_combout\ $end
$var wire 1 "" \inst1|state.start~feeder_combout\ $end
$var wire 1 #" \inst1|state.start~q\ $end
$var wire 1 $" \inst1|Selector15~0_combout\ $end
$var wire 1 %" \inst1|count[0]~0_combout\ $end
$var wire 1 &" \inst1|Selector14~0_combout\ $end
$var wire 1 '" \inst1|Selector13~0_combout\ $end
$var wire 1 (" \inst1|Selector1~0_combout\ $end
$var wire 1 )" \inst1|Selector1~1_combout\ $end
$var wire 1 *" \inst1|state.b_trans~q\ $end
$var wire 1 +" \inst1|state.b_write~feeder_combout\ $end
$var wire 1 ," \inst1|state.b_write~q\ $end
$var wire 1 -" \inst1|state~16_combout\ $end
$var wire 1 ." \inst1|state.ack_1~q\ $end
$var wire 1 /" \inst1|WideOr6~0_combout\ $end
$var wire 1 0" \inst1|Selector16~0_combout\ $end
$var wire 1 1" \inst|WideOr22~0_combout\ $end
$var wire 1 2" \inst1|data[2]~7_combout\ $end
$var wire 1 3" \inst1|data[7]~2_combout\ $end
$var wire 1 4" \inst1|data[7]~3_combout\ $end
$var wire 1 5" \inst|WideOr20~combout\ $end
$var wire 1 6" \inst|WideOr23~combout\ $end
$var wire 1 7" \inst1|data[1]~feeder_combout\ $end
$var wire 1 8" \inst|WideOr24~combout\ $end
$var wire 1 9" \inst1|Mux0~0_combout\ $end
$var wire 1 :" \inst1|Mux0~1_combout\ $end
$var wire 1 ;" \inst1|data[5]~4_combout\ $end
$var wire 1 <" \inst1|data[5]~6_combout\ $end
$var wire 1 =" \inst1|data[5]~5_combout\ $end
$var wire 1 >" \inst1|Mux0~2_combout\ $end
$var wire 1 ?" \inst|WideOr19~combout\ $end
$var wire 1 @" \inst1|Mux0~3_combout\ $end
$var wire 1 A" \inst1|Mux0~4_combout\ $end
$var wire 1 B" \inst1|Selector16~1_combout\ $end
$var wire 1 C" \inst|state.done~0_combout\ $end
$var wire 1 D" \inst|state.done~q\ $end
$var wire 1 E" \inst1|count\ [3] $end
$var wire 1 F" \inst1|count\ [2] $end
$var wire 1 G" \inst1|count\ [1] $end
$var wire 1 H" \inst1|count\ [0] $end
$var wire 1 I" \inst|count\ [7] $end
$var wire 1 J" \inst|count\ [6] $end
$var wire 1 K" \inst|count\ [5] $end
$var wire 1 L" \inst|count\ [4] $end
$var wire 1 M" \inst|count\ [3] $end
$var wire 1 N" \inst|count\ [2] $end
$var wire 1 O" \inst|count\ [1] $end
$var wire 1 P" \inst|count\ [0] $end
$var wire 1 Q" \inst1|data\ [7] $end
$var wire 1 R" \inst1|data\ [6] $end
$var wire 1 S" \inst1|data\ [5] $end
$var wire 1 T" \inst1|data\ [4] $end
$var wire 1 U" \inst1|data\ [3] $end
$var wire 1 V" \inst1|data\ [2] $end
$var wire 1 W" \inst1|data\ [1] $end
$var wire 1 X" \inst1|data\ [0] $end
$var wire 1 Y" \inst|cuenta_int\ [2] $end
$var wire 1 Z" \inst|cuenta_int\ [1] $end
$var wire 1 [" \inst|cuenta_int\ [0] $end
$var wire 1 \" \inst|cuenta_int_2\ [3] $end
$var wire 1 ]" \inst|cuenta_int_2\ [2] $end
$var wire 1 ^" \inst|cuenta_int_2\ [1] $end
$var wire 1 _" \inst|cuenta_int_2\ [0] $end
$var wire 1 `" \inst|ALT_INV_count[0]~1_combout\ $end
$var wire 1 a" \inst|ALT_INV_WideOr22~0_combout\ $end
$var wire 1 b" \inst1|ALT_INV_buisy~0_combout\ $end
$var wire 1 c" \inst|ALT_INV_count[3]~0_combout\ $end
$var wire 1 d" \inst|ALT_INV_WideOr18~1_combout\ $end
$var wire 1 e" \inst|ALT_INV_state.idle~q\ $end
$upscope $end
$upscope $end
$enddefinitions $end
#0
$dumpvars
0!
0"
0#
0$
0-
0.
0/
10
01
12
03
z4
z5
06
07
08
09
1:
x;
1<
1=
1>
1?
1@
1A
0B
0C
0D
0E
zF
0G
0H
1I
1J
0K
0L
0M
0N
0O
0P
ze
zf
0g
0h
0i
1j
1k
0l
0m
0n
0o
0p
0q
0r
0s
0t
0u
0v
0w
0x
0y
0z
0{
0|
0}
1~
0!!
0"!
0#!
0$!
0%!
0&!
0'!
1(!
0)!
0*!
0+!
0,!
0-!
0.!
1/!
10!
01!
02!
z3!
04!
05!
16!
07!
18!
19!
1:!
1;!
1<!
0=!
0>!
1?!
1@!
1A!
1B!
0C!
0D!
1E!
0F!
1G!
1H!
0I!
0J!
1K!
0L!
1M!
1N!
0O!
0P!
1Q!
0R!
1S!
0T!
0U!
0V!
0W!
0X!
0Y!
0Z!
0[!
0\!
0]!
0^!
0_!
0`!
0a!
0b!
0c!
0d!
0e!
0f!
0g!
0h!
0i!
0j!
0k!
0l!
0m!
0n!
0o!
0p!
0q!
1r!
0s!
0t!
0u!
0v!
1w!
0x!
1y!
0z!
0{!
0|!
0}!
0~!
0!"
0""
0#"
1$"
0%"
1&"
1'"
0("
0)"
0*"
0+"
0,"
0-"
0."
1/"
10"
11"
02"
13"
04"
05"
06"
07"
08"
09"
0:"
0;"
0<"
0="
0>"
0?"
0@"
0A"
1B"
0C"
0D"
0`"
0a"
1b"
0c"
0d"
1e"
xE"
0F"
0G"
0H"
0I"
0J"
0K"
0L"
0M"
0N"
0O"
0P"
0Q"
xR"
0S"
xT"
0U"
0V"
0W"
0X"
0Y"
0Z"
0["
0\"
0]"
0^"
0_"
1a
1b
1c
0d
1]
1^
1_
0`
1Y
1Z
1[
0\
0%
0&
0'
0(
0)
0*
0+
0,
0Q
0R
0S
0T
0U
0V
0W
0X
$end
#5000
1"
1C
1z
1d
1{
1i
1H
1["
1_"
1$
1%!
0(!
1|
0~
#10000
0"
0C
0z
0d
0{
0i
0H
0$
#15000
1"
1C
1z
1d
1{
1i
1H
1Z"
0["
1^"
0_"
1$
1(!
1~
#20000
0"
0C
0z
0d
0{
0i
0H
0$
#25000
1"
1C
1z
1d
1{
1i
1H
1["
1_"
1$
0%!
1&!
0(!
0|
1}
0~
#30000
0"
0C
0z
0d
0{
0i
0H
0$
#35000
1"
1C
1z
1d
1{
1i
1H
0Z"
1Y"
0["
0^"
1]"
0_"
1$
1(!
0}
1!!
1"!
#40000
0"
0C
0z
0d
0{
0i
0H
0$
#45000
1"
1C
1z
1d
1{
1i
1H
0Y"
1#!
1_"
1$
1`
1%!
0(!
1~
1$!
1o
1N
1#
#50000
0"
0C
0z
0d
0{
0i
0H
0$
#55000
1"
1C
1z
1d
1{
1i
1H
1["
1^"
0_"
1$
0%!
0&!
1)!
1|
0~
1*!
1+!
#60000
0"
0C
0z
0d
0{
0i
0H
0$
#65000
1"
1C
1z
1d
1{
1i
1H
1Z"
0["
0^"
0]"
1,!
1$
1\
0*!
1(!
0)!
1~
1*!
0+!
1-!
1+!
#70000
0"
0C
0z
0d
0{
0i
0H
0$
#75000
1"
1C
1z
1d
1{
1i
1H
1["
1_"
1$
1%!
0(!
0|
1}
0~
#80000
0"
0C
0z
0d
0{
0i
0H
0$
#85000
1"
1C
1z
1d
1{
1i
1H
0Z"
1Y"
0["
1^"
0_"
1$
1(!
0}
0!!
0"!
#90000
0"
0C
0z
0d
0{
0i
0H
0$
#95000
1"
1C
1z
1d
1{
1i
1H
0Y"
0#!
1_"
1$
0`
0%!
1&!
0(!
1~
0$!
0o
0N
0#
#100000
0"
0C
0z
0d
0{
0i
0H
0$
#105000
1"
1C
1z
1d
1{
1i
1H
1["
0^"
1]"
0_"
1$
1(!
1|
0~
#110000
0"
0C
0z
0d
0{
0i
0H
0$
#115000
1"
1C
1z
1d
1{
1i
1H
1Z"
0["
1_"
1$
1%!
0(!
1~
#120000
0"
0C
0z
0d
0{
0i
0H
0$
#125000
1"
1C
1z
1d
1{
1i
1H
1["
1^"
0_"
1$
0%!
0&!
1)!
0|
1}
0~
0*!
0+!
#130000
0"
0C
0z
0d
0{
0i
0H
0$
#135000
1"
1C
1z
1d
1{
1i
1H
0Z"
1Y"
0["
0^"
0]"
0,!
1$
0\
1*!
1(!
0)!
0}
1!!
1"!
0*!
1+!
0-!
0+!
#140000
0"
0C
0z
0d
0{
0i
0H
0$
#145000
1"
1C
1z
1d
1{
1i
1H
0Y"
1#!
1_"
1$
1`
1%!
0(!
1~
1$!
1o
1N
1#
#150000
0"
0C
0z
0d
0{
0i
0H
0$
#155000
1"
1C
1z
1d
1{
1i
1H
1["
1^"
0_"
1$
1(!
1|
0~
#160000
0"
0C
0z
0d
0{
0i
0H
0$
#165000
1"
1C
1z
1d
1{
1i
1H
1Z"
0["
1_"
1$
0%!
1&!
0(!
1~
#170000
0"
0C
0z
0d
0{
0i
0H
0$
#175000
1"
1C
1z
1d
1{
1i
1H
1["
0^"
1]"
0_"
1$
1(!
0|
1}
0~
#180000
0"
0C
0z
0d
0{
0i
0H
0$
#185000
1"
1C
1z
1d
1{
1i
1H
0Z"
1Y"
0["
1_"
1$
1%!
0(!
0}
0!!
0"!
#190000
0"
0C
0z
0d
0{
0i
0H
0$
#195000
1"
1C
1z
1d
1{
1i
1H
0Y"
0#!
1^"
0_"
1$
0`
0%!
0&!
1)!
1~
1*!
0$!
0o
1+!
0N
0#
#200000
0"
0C
0z
0d
0{
0i
0H
0$
#205000
1"
1C
1z
1d
1{
1i
1H
1["
0^"
0]"
1,!
1$
1\
0*!
1(!
0)!
1|
0~
1*!
0+!
1-!
1+!
#210000
0"
0C
0z
0d
0{
0i
0H
0$
#215000
1"
1C
1z
1d
1{
1i
1H
1Z"
0["
1_"
1$
1%!
0(!
1~
#220000
0"
0C
0z
0d
0{
0i
0H
0$
#225000
1"
1C
1z
1d
1{
1i
1H
1["
1^"
0_"
1$
1(!
0|
1}
0~
#230000
0"
0C
0z
0d
0{
0i
0H
0$
#235000
1"
1C
1z
1d
1{
1i
1H
0Z"
1Y"
0["
1_"
1$
0%!
1&!
0(!
0}
1!!
1"!
#240000
0"
0C
0z
0d
0{
0i
0H
0$
#245000
1"
1C
1z
1d
1{
1i
1H
0Y"
1#!
0^"
1]"
0_"
1$
1`
1(!
1~
1$!
1o
1N
1#
#250000
0"
0C
0z
0d
0{
0i
0H
0$
#255000
1"
1C
1z
1d
1{
1i
1H
1["
1_"
1$
1%!
0(!
1|
0~
#260000
0"
0C
0z
0d
0{
0i
0H
0$
#265000
1"
1C
1z
1d
1{
1i
1H
1Z"
0["
1^"
0_"
1$
0%!
0&!
1)!
1~
0*!
0+!
#270000
0"
0C
0z
0d
0{
0i
0H
0$
#275000
1"
1C
1z
1d
1{
1i
1H
1["
0^"
0]"
0,!
1$
0\
1*!
1(!
0)!
0|
1}
0~
0*!
1+!
0-!
0+!
#280000
0"
0C
0z
0d
0{
0i
0H
0$
#285000
1"
1C
1z
1d
1{
1i
1H
0Z"
1Y"
0["
1_"
1$
1%!
0(!
0}
0!!
0"!
#290000
0"
0C
0z
0d
0{
0i
0H
0$
#295000
1"
1C
1z
1d
1{
1i
1H
0Y"
0#!
1^"
0_"
1$
0`
1(!
1~
0$!
0o
0N
0#
#300000
0"
0C
0z
0d
0{
0i
0H
0$
#305000
1"
1C
1z
1d
1{
1i
1H
1["
1_"
1$
0%!
1&!
0(!
1|
0~
#310000
0"
0C
0z
0d
0{
0i
0H
0$
#315000
1"
1C
1z
1d
1{
1i
1H
1Z"
0["
0^"
1]"
0_"
1$
1(!
1~
#320000
0"
0C
0z
0d
0{
0i
0H
0$
#325000
1"
1C
1z
1d
1{
1i
1H
1["
1_"
1$
1%!
0(!
0|
1}
0~
#330000
0"
0C
0z
0d
0{
0i
0H
0$
#335000
1"
1C
1z
1d
1{
1i
1H
0Z"
1Y"
0["
1^"
0_"
1$
0%!
0&!
1)!
0}
1!!
1"!
1*!
1+!
#340000
0"
0C
0z
0d
0{
0i
0H
0$
#345000
1"
1C
1z
1d
1{
1i
1H
0Y"
1#!
0^"
0]"
1,!
1$
1`
1\
0*!
1(!
0)!
1~
1*!
0+!
1-!
1$!
1o
1+!
1N
1#
#350000
0"
0C
0z
0d
0{
0i
0H
0$
#355000
1"
1C
1z
1d
1{
1i
1H
1["
1_"
1$
1%!
0(!
1|
0~
#360000
0"
0C
0z
0d
0{
0i
0H
0$
#365000
1"
1C
1z
1d
1{
1i
1H
1Z"
0["
1^"
0_"
1$
1(!
1~
#370000
0"
0C
0z
0d
0{
0i
0H
0$
#375000
1"
1C
1z
1d
1{
1i
1H
1["
1_"
1$
0%!
1&!
0(!
0|
1}
0~
#380000
0"
0C
0z
0d
0{
0i
0H
0$
#385000
1"
1C
1z
1d
1{
1i
1H
0Z"
1Y"
0["
0^"
1]"
0_"
1$
1(!
0}
0!!
0"!
#390000
0"
0C
0z
0d
0{
0i
0H
0$
#395000
1"
1C
1z
1d
1{
1i
1H
0Y"
0#!
1_"
1$
0`
1%!
0(!
1~
0$!
0o
0N
0#
#400000
0"
0C
0z
0d
0{
0i
0H
0$
#405000
1"
1C
1z
1d
1{
1i
1H
1["
1^"
0_"
1$
0%!
0&!
1)!
1|
0~
0*!
0+!
#410000
0"
11
0C
1E
11!
0z
0d
06!
1`"
0{
0i
0H
0$
#415000
1"
1C
1z
1d
1{
1i
1H
1Z"
0["
0^"
0]"
0,!
1$
0\
1*!
1(!
0)!
1~
0*!
1+!
0-!
0+!
#420000
0"
0C
0z
0d
0{
0i
0H
0$
#425000
1"
1C
1z
1d
1{
1i
1H
1["
1_"
1$
1%!
0(!
0|
1}
0~
#430000
0"
0C
0z
0d
0{
0i
0H
0$
#435000
1"
1C
1z
1d
1{
1i
1H
0Z"
1Y"
0["
1^"
0_"
1$
1(!
0}
1!!
1"!
#440000
0"
0C
0z
0d
0{
0i
0H
0$
#445000
1"
1C
1z
1d
1{
1i
1H
0Y"
1#!
1_"
1$
1`
0%!
1&!
0(!
1~
1$!
1o
1N
1#
#450000
0"
0C
0z
0d
0{
0i
0H
0$
#455000
1"
1C
1z
1d
1{
1i
1H
1["
0^"
1]"
0_"
1$
1(!
1|
0~
#460000
0"
0C
0z
0d
0{
0i
0H
0$
#465000
1"
1C
1z
1d
1{
1i
1H
1Z"
0["
1_"
1$
1%!
0(!
1~
#470000
0"
0C
0z
0d
0{
0i
0H
0$
#475000
1"
1C
1z
1d
1{
1i
1H
1["
1^"
0_"
1$
0%!
0&!
1)!
0|
1}
0~
1*!
1+!
#480000
0"
0C
0z
0d
0{
0i
0H
0$
#485000
1"
1C
1z
1d
1{
1i
1H
0Z"
1Y"
0["
0^"
0]"
1,!
1$
1\
0*!
1(!
0)!
0}
0!!
0"!
1*!
0+!
1-!
1+!
17!
1x!
0e"
08!
1U!
1}!
1!"
03"
15"
1?"
0w!
1;"
1c"
1="
14"
1""
1=!
16"
0k
17"
1r
1u
1v
0J
1n
1t
1Q
1T
1U
00
1x
1M
1S
1)
1(
1%
1W
13
1'
1+
#490000
0"
0C
0z
0d
0{
0i
0H
0$
#495000
1"
1C
1z
1d
1{
1i
1H
0Y"
0#!
1_"
1$
0`
1%!
0(!
1~
0$!
0o
0N
0#
#500000
0"
0C
0z
0d
0{
0i
0H
0$
#505000
1"
1C
1z
1d
1{
1i
1H
1["
1^"
0_"
1$
1(!
1|
0~
#510000
0"
0C
0z
0d
0{
0i
0H
0$
#515000
1"
1C
1z
1d
1{
1i
1H
1Z"
0["
1_"
1$
0%!
1&!
0(!
1~
#520000
0"
0C
0z
0d
0{
0i
0H
0$
#525000
1"
1C
1z
1d
1{
1i
1H
1["
0^"
1]"
0_"
1$
1(!
0|
1}
0~
#530000
0"
0C
0z
0d
0{
0i
0H
0$
#535000
1"
1C
1z
1d
1{
1i
1H
0Z"
1Y"
0["
1_"
1$
1%!
0(!
0}
1!!
1"!
#540000
0"
0C
0z
0d
0{
0i
0H
0$
#545000
1"
1C
1z
1d
1{
1i
1H
0Y"
1#!
1^"
0_"
1$
1`
0%!
0&!
1)!
1~
0*!
1$!
1o
0+!
1N
1~!
1#"
1U"
1W"
1S"
1Q"
1#
0;"
1>"
1%"
1)"
1v!
0!"
13"
0b"
04"
0""
0=!
0U!
1w!
00"
0B"
1p
1O
1!
0f
05
03!
#550000
0"
0C
0z
0d
0{
0i
0H
0$
#555000
1"
1C
1z
1d
1{
1i
1H
1["
0^"
0]"
0,!
1$
0\
1*!
1(!
0)!
1|
0~
0*!
1+!
0-!
0+!
#560000
0"
0C
0z
0d
0{
0i
0H
0$
#565000
1"
1C
1z
1d
1{
1i
1H
1Z"
0["
1_"
1$
1%!
0(!
1~
#570000
0"
0C
0z
0d
0{
0i
0H
0$
#575000
1"
1C
1z
1d
1{
1i
1H
1["
1^"
0_"
1$
1(!
0|
1}
0~
#580000
0"
0C
0z
0d
0{
0i
0H
0$
#585000
1"
1C
1z
1d
1{
1i
1H
0Z"
1Y"
0["
1_"
1$
0%!
1&!
0(!
0}
0!!
0"!
#590000
0"
0C
0z
0d
0{
0i
0H
0$
#595000
1"
1C
1z
1d
1{
1i
1H
0Y"
0#!
0^"
1]"
0_"
1$
0`
1(!
1~
0$!
0o
0N
0#
#600000
0"
0C
0z
0d
0{
0i
0H
0$
#605000
1"
1C
1z
1d
1{
1i
1H
1["
1_"
1$
1%!
0(!
1|
0~
#610000
0"
0C
0z
0d
0{
0i
0H
0$
#615000
1"
1C
1z
1d
1{
1i
1H
1Z"
0["
1^"
0_"
1$
0%!
0&!
1)!
1~
1*!
1+!
#620000
0"
0C
0z
0d
0{
0i
0H
0$
#625000
1"
1C
1z
1d
1{
1i
1H
1["
0^"
0]"
1,!
1$
1\
0*!
1(!
0)!
0|
1}
0~
1*!
0+!
1-!
1+!
#630000
0"
0C
0z
0d
0{
0i
0H
0$
#635000
1"
1C
1z
1d
1{
1i
1H
0Z"
1Y"
0["
1_"
1$
1%!
0(!
0}
1!!
1"!
#640000
0"
0C
0z
0d
0{
0i
0H
0$
#645000
1"
1C
1z
1d
1{
1i
1H
0Y"
1#!
1^"
0_"
1$
1`
1(!
1~
1$!
1o
1N
0#"
1H"
1G"
1F"
1*"
1#
1+"
0/"
1A"
19"
0>"
1@"
0%"
0)"
1:"
1B"
0e
0F
zf
04
z5
z3!
#650000
0"
0C
0z
0d
0{
0i
0H
0$
#655000
1"
1C
1z
1d
1{
1i
1H
1["
1_"
1$
0%!
1&!
0(!
1|
0~
#660000
0"
0C
0z
0d
0{
0i
0H
0$
#665000
1"
1C
1z
1d
1{
1i
1H
1Z"
0["
0^"
1]"
0_"
1$
1(!
1~
#670000
0"
0C
0z
0d
0{
0i
0H
0$
#675000
1"
1C
1z
1d
1{
1i
1H
1["
1_"
1$
1%!
0(!
0|
1}
0~
#680000
0"
0C
0z
0d
0{
0i
0H
0$
#685000
1"
1C
1z
1d
1{
1i
1H
0Z"
1Y"
0["
1^"
0_"
1$
0%!
0&!
1)!
0}
0!!
0"!
0*!
0+!
#690000
0"
0C
0z
0d
0{
0i
0H
0$
#695000
1"
1C
1z
1d
1{
1i
1H
0Y"
0#!
0^"
0]"
0,!
1$
0`
0\
1*!
1(!
0)!
1~
0*!
1+!
0-!
0$!
0o
0+!
0N
0#
#700000
0"
0C
0z
0d
0{
0i
0H
0$
#705000
1"
1C
1z
1d
1{
1i
1H
1["
1_"
1$
1%!
0(!
1|
0~
#710000
0"
0C
0z
0d
0{
0i
0H
0$
#715000
1"
1C
1z
1d
1{
1i
1H
1Z"
0["
1^"
0_"
1$
1(!
1~
#720000
0"
0C
0z
0d
0{
0i
0H
0$
#725000
1"
1C
1z
1d
1{
1i
1H
1["
1_"
1$
0%!
1&!
0(!
0|
1}
0~
#730000
0"
0C
0z
0d
0{
0i
0H
0$
#735000
1"
1C
1z
1d
1{
1i
1H
0Z"
1Y"
0["
0^"
1]"
0_"
1$
1(!
0}
1!!
1"!
#740000
0"
0C
0z
0d
0{
0i
0H
0$
#745000
1"
1C
1z
1d
1{
1i
1H
0Y"
1#!
1_"
1$
1`
1%!
0(!
1~
1$!
1o
1N
0*"
1,"
1#
0$"
1%"
1("
0+"
1/"
1)"
ze
zF
z4
#750000
0"
0C
0z
0d
0{
0i
0H
0$
#755000
1"
1C
1z
1d
1{
1i
1H
1["
1^"
0_"
1$
0%!
0&!
1)!
1|
0~
1*!
1+!
#760000
0"
0C
0z
0d
0{
0i
0H
0$
#765000
1"
1C
1z
1d
1{
1i
1H
1Z"
0["
0^"
0]"
1,!
1$
1\
0*!
1(!
0)!
1~
1*!
0+!
1-!
1+!
#770000
0"
0C
0z
0d
0{
0i
0H
0$
