Pruebas/sram_cic_v2/simulation/qsim/sram_cic_v2.msim.vcd
$comment
	File created using the following command:
		vcd file sram_cic_v2.msim.vcd -direction
$end
$date
	Thu Sep 05 17:16:11 2024
$end
$version
	ModelSim Version 2020.1
$end
$timescale
	1ps
$end

$scope module prueba_1_vhd_vec_tst $end
$var wire 1 ! clk_50 $end
$var wire 1 " trigger_camara $end
$var wire 1 # trigger_i $end
$var wire 1 $ trigger_o $end

$scope module i1 $end
$var wire 1 % gnd $end
$var wire 1 & vcc $end
$var wire 1 ' unknown $end
$var wire 1 ( devoe $end
$var wire 1 ) devclrn $end
$var wire 1 * devpor $end
$var wire 1 + ww_devoe $end
$var wire 1 , ww_devclrn $end
$var wire 1 - ww_devpor $end
$var wire 1 . ww_clk_50 $end
$var wire 1 / ww_trigger_i $end
$var wire 1 0 ww_trigger_o $end
$var wire 1 1 ww_trigger_camara $end
$var wire 1 2 \clk_50~inputclkctrl_INCLK_bus\ [3] $end
$var wire 1 3 \clk_50~inputclkctrl_INCLK_bus\ [2] $end
$var wire 1 4 \clk_50~inputclkctrl_INCLK_bus\ [1] $end
$var wire 1 5 \clk_50~inputclkctrl_INCLK_bus\ [0] $end
$var wire 1 6 \trigger_o~output_o\ $end
$var wire 1 7 \trigger_camara~output_o\ $end
$var wire 1 8 \clk_50~input_o\ $end
$var wire 1 9 \clk_50~inputclkctrl_outclk\ $end
$var wire 1 : \Add0~0_combout\ $end
$var wire 1 ; \contador~2_combout\ $end
$var wire 1 < \trigger_i~input_o\ $end
$var wire 1 = \trigger_prev~0_combout\ $end
$var wire 1 > \trigger_prev~q\ $end
$var wire 1 ? \inicio~0_combout\ $end
$var wire 1 @ \inicio~1_combout\ $end
$var wire 1 A \inicio~q\ $end
$var wire 1 B \Add0~1\ $end
$var wire 1 C \Add0~2_combout\ $end
$var wire 1 D \Add0~3\ $end
$var wire 1 E \Add0~4_combout\ $end
$var wire 1 F \contador~1_combout\ $end
$var wire 1 G \Add0~5\ $end
$var wire 1 H \Add0~6_combout\ $end
$var wire 1 I \Equal0~0_combout\ $end
$var wire 1 J \Add0~7\ $end
$var wire 1 K \Add0~8_combout\ $end
$var wire 1 L \contador~0_combout\ $end
$var wire 1 M \LessThan0~0_combout\ $end
$var wire 1 N \LessThan0~1_combout\ $end
$var wire 1 O \trigger_o~reg0_q\ $end
$var wire 1 P \Equal0~1_combout\ $end
$var wire 1 Q \trigger_camara~reg0_q\ $end
$var wire 1 R contador [4] $end
$var wire 1 S contador [3] $end
$var wire 1 T contador [2] $end
$var wire 1 U contador [1] $end
$var wire 1 V contador [0] $end
$upscope $end
$upscope $end
$enddefinitions $end
#0
$dumpvars
0!
0"
1#
0$
0%
1&
x'
1(
1)
1*
1+
1,
1-
0.
1/
00
01
06
07
08
09
1:
1;
1<
0=
0>
0?
0@
0A
0B
0C
1D
0E
0F
0G
0H
1I
1J
0K
0L
0M
1N
0O
1P
0Q
0R
0S
0T
0U
0V
12
13
14
05
$end
#5000
1!
1.
18
15
19
#10000
0!
0.
08
05
09
#15000
1!
1.
18
15
19
#20000
0!
0.
08
05
09
#25000
1!
1.
18
15
19
#30000
0!
0.
08
05
09
#35000
1!
1.
18
15
19
#40000
0!
0.
08
05
09
#45000
1!
1.
18
15
19
#50000
0!
0.
08
05
09
#55000
1!
1.
18
15
19
#60000
0!
0#
0.
0/
0<
08
05
1=
1?
1@
09
#65000
1!
1.
18
15
19
1>
1A
0?
#70000
0!
0.
08
05
09
#75000
1!
1.
18
15
19
1V
1O
1Q
0:
1B
1M
0N
1C
0;
17
16
11
10
1"
1$
#80000
0!
0.
08
05
09
#85000
1!
1.
18
15
19
0V
1U
0O
0C
0D
1:
0B
1C
1D
1;
1E
06
1F
0E
00
0$
0F
#90000
0!
0.
08
05
09
#95000
1!
1.
18
15
19
1V
0:
1B
0C
0D
0;
1E
1F
#100000
0!
0.
08
05
09
#105000
1!
1.
18
15
19
0V
0U
1T
0E
1G
1C
1D
1:
0B
0I
0C
1;
1E
0G
1H
0F
0H
1F
#110000
0!
0.
08
05
09
#115000
1!
1.
18
15
19
1V
0:
1B
1I
1C
0;
#120000
0!
0.
08
05
09
#125000
1!
1.
18
15
19
0V
1U
0C
0D
1:
0B
1C
1D
1;
0E
1G
1H
0F
1E
0G
0H
1F
#130000
0!
0.
08
05
09
#135000
1!
1.
18
15
19
1V
0:
1B
0C
0D
0;
0E
1G
1H
0F
#140000
0!
0.
08
05
09
#145000
1!
1.
18
15
19
0V
0U
0T
1S
0H
0J
1E
0G
1C
1D
1:
0B
0C
1;
0E
1H
1J
1F
1K
1L
0K
0F
0L
#150000
0!
0.
08
05
09
#155000
1!
1.
18
15
19
1V
0:
1B
1C
0;
#160000
0!
0.
08
05
09
#165000
1!
1.
18
15
19
0V
1U
0C
0D
1:
0B
1C
1D
1;
1E
1F
0E
0F
#170000
0!
0.
08
05
09
#175000
1!
1.
18
15
19
1V
0:
1B
0C
0D
0;
1E
1F
#180000
0!
0.
08
05
09
#185000
1!
1.
18
15
19
0V
0U
1T
0E
1G
1C
1D
1:
0B
0C
1;
1E
0G
0H
0J
0F
1K
1H
1J
1F
0K
1L
0L
#190000
0!
0.
08
05
09
#195000
1!
1.
18
15
19
1V
0:
1B
1C
0;
#200000
0!
0.
08
05
09
#205000
1!
1.
18
15
19
0V
1U
0C
0D
1:
0B
1C
1D
1;
0E
1G
0H
0J
0F
1E
0G
1H
1J
1F
1K
1L
0K
0L
#210000
0!
0.
08
05
09
#215000
1!
1.
18
15
19
1V
0:
1B
0C
0D
0;
0E
1G
0H
0J
0F
1K
1L
#220000
0!
0.
08
05
09
#225000
1!
1.
18
15
19
0V
0U
0T
0S
1R
0K
1H
1J
1E
0G
1C
1D
1:
0B
0M
0C
1;
0E
0H
1F
1K
0L
1L
0F
#230000
0!
0.
08
05
09
#235000
1!
1.
18
15
19
1V
0:
1B
1M
1C
0;
#240000
0!
0.
08
05
09
#245000
1!
1.
18
15
19
0V
1U
0C
0D
1:
0B
1C
1D
1;
1E
1F
0E
0F
#250000
0!
0.
08
05
09
#255000
1!
1.
18
15
19
1V
0:
1B
0C
0D
0;
1E
1F
#260000
0!
0.
08
05
09
#265000
1!
1.
18
15
19
0V
0U
1T
0E
1G
1C
1D
1:
0B
0I
0@
0L
0P
0C
1E
0G
1H
0H
0F
#270000
0!
0.
08
05
09
#275000
1!
1.
18
15
19
0A
0T
0R
0Q
1;
1F
0K
1L
1P
0E
1I
0M
1N
0F
0L
07
01
0"
#280000
0!
0.
08
05
09
#285000
1!
1.
18
15
19
#290000
0!
0.
08
05
09
#295000
1!
1.
18
15
19
#300000
0!
0.
08
05
09
#305000
1!
1.
18
15
19
#310000
0!
0.
08
05
09
#315000
1!
1.
18
15
19
#320000
0!
0.
08
05
09
#325000
1!
1.
18
15
19
#330000
0!
0.
08
05
09
#335000
1!
1.
18
15
19
#340000
0!
0.
08
05
09
#345000
1!
1.
18
15
19
#350000
0!
0.
08
05
09
#355000
1!
1.
18
15
19
#360000
0!
0.
08
05
09
#365000
1!
1.
18
15
19
#370000
0!
0.
08
05
09
#375000
1!
1.
18
15
19
#380000
0!
0.
08
05
09
#385000
1!
1.
18
15
19
#390000
0!
0.
08
05
09
#395000
1!
1.
18
15
19
#400000
0!
0.
08
05
09
#405000
1!
1.
18
15
19
#410000
0!
0.
08
05
09
#415000
1!
1.
18
15
19
#420000
0!
0.
08
05
09
#425000
1!
1.
18
15
19
#430000
0!
0.
08
05
09
#435000
1!
1.
18
15
19
#440000
0!
0.
08
05
09
#445000
1!
1.
18
15
19
#450000
0!
0.
08
05
09
#455000
1!
1.
18
15
19
#460000
0!
0.
08
05
09
#465000
1!
1.
18
15
19
#470000
0!
0.
08
05
09
#475000
1!
1.
18
15
19
#480000
0!
0.
08
05
09
#485000
1!
1.
18
15
19
#490000
0!
0.
08
05
09
#495000
1!
1.
18
15
19
#500000
0!
0.
08
05
09
#505000
1!
1.
18
15
19
#510000
0!
0.
08
05
09
#515000
1!
1.
18
15
19
#520000
0!
0.
08
05
09
#525000
1!
1.
18
15
19
#530000
0!
0.
08
05
09
#535000
1!
1.
18
15
19
#540000
0!
0.
08
05
09
#545000
1!
1.
18
15
19
#550000
0!
0.
08
05
09
#555000
1!
1.
18
15
19
#560000
0!
0.
08
05
09
#565000
1!
1.
18
15
19
#570000
0!
0.
08
05
09
#575000
1!
1.
18
15
19
#580000
0!
0.
08
05
09
#585000
1!
1.
18
15
19
#590000
0!
0.
08
05
09
#595000
1!
1.
18
15
19
#600000
0!
0.
08
05
09
#605000
1!
1.
18
15
19
#610000
0!
0.
08
05
09
#615000
1!
1.
18
15
19
#620000
0!
0.
08
05
09
#625000
1!
1.
18
15
19
#630000
0!
0.
08
05
09
#635000
1!
1.
18
15
19
#640000
0!
0.
08
05
09
#645000
1!
1.
18
15
19
#650000
0!
0.
08
05
09
#655000
1!
1.
18
15
19
#660000
0!
0.
08
05
09
#665000
1!
1.
18
15
19
#670000
0!
0.
08
05
09
#675000
1!
1.
18
15
19
#680000
0!
0.
08
05
09
#685000
1!
1.
18
15
19
#690000
0!
0.
08
05
09
#695000
1!
1.
18
15
19
#700000
0!
0.
08
05
09
#705000
1!
1.
18
15
19
#710000
0!
0.
08
05
09
#715000
1!
1.
18
15
19
#720000
0!
0.
08
05
09
#725000
1!
1.
18
15
19
#730000
0!
0.
08
05
09
#735000
1!
1.
18
15
19
#740000
0!
0.
08
05
09
#745000
1!
1.
18
15
19
#750000
0!
0.
08
05
09
#755000
1!
1.
18
15
19
#760000
0!
0.
08
05
09
#765000
1!
1.
18
15
19
#770000
0!
0.
08
05
09
#775000
1!
1.
18
15
19
#780000
0!
0.
08
05
09
#785000
1!
1.
18
15
19
#790000
0!
0.
08
05
09
#795000
1!
1.
18
15
19
#800000
0!
0.
08
05
09
#805000
1!
1.
18
15
19
#810000
0!
0.
08
05
09
#815000
1!
1.
18
15
19
#820000
0!
0.
08
05
09
#825000
1!
1.
18
15
19
#830000
0!
1#
0.
1/
1<
08
05
0=
09
#835000
1!
1.
18
15
19
0>
#840000
0!
0.
08
05
09
#845000
1!
1.
18
15
19
#850000
0!
0.
08
05
09
#855000
1!
1.
18
15
19
#860000
0!
0.
08
05
09
#865000
1!
1.
18
15
19
#870000
0!
0.
08
05
09
#875000
1!
1.
18
15
19
#880000
0!
0.
08
05
09
#885000
1!
1.
18
15
19
#890000
0!
0.
08
05
09
#895000
1!
1.
18
15
19
#900000
0!
0.
08
05
09
#905000
1!
1.
18
15
19
#910000
0!
0.
08
05
09
#915000
1!
1.
18
15
19
#920000
0!
0.
08
05
09
#925000
1!
1.
18
15
19
#930000
0!
0.
08
05
09
#935000
1!
1.
18
15
19
#940000
0!
0.
08
05
09
#945000
1!
1.
18
15
19
#950000
0!
0.
08
05
09
#955000
1!
1.
18
15
19
#960000
0!
0.
08
05
09
#965000
1!
1.
18
15
19
#970000
0!
0.
08
05
09
#975000
1!
1.
18
15
19
#980000
0!
0.
08
05
09
#985000
1!
1.
18
15
19
#990000
0!
0.
08
05
09
#995000
1!
1.
18
15
19
