Pruebas/prueba_algoritmo/simulation/qsim/pruebas_algoritmo.msim.vcd
$comment
	File created using the following command:
		vcd file pruebas_algoritmo.msim.vcd -direction
$end
$date
	Thu Sep 19 18:35:00 2024
$end
$version
	ModelSim Version 2020.1
$end
$timescale
	1ps
$end

$scope module uart_algo_vlg_vec_tst $end
$var reg 1 ! clk $end
$var reg 1 " reset $end
$var reg 8 # rx_byte [7:0] $end
$var reg 1 $ rx_dv $end
$var wire 1 % byte_o [7] $end
$var wire 1 & byte_o [6] $end
$var wire 1 ' byte_o [5] $end
$var wire 1 ( byte_o [4] $end
$var wire 1 ) byte_o [3] $end
$var wire 1 * byte_o [2] $end
$var wire 1 + byte_o [1] $end
$var wire 1 , byte_o [0] $end
$var wire 1 - pix_count [20] $end
$var wire 1 . pix_count [19] $end
$var wire 1 / pix_count [18] $end
$var wire 1 0 pix_count [17] $end
$var wire 1 1 pix_count [16] $end
$var wire 1 2 pix_count [15] $end
$var wire 1 3 pix_count [14] $end
$var wire 1 4 pix_count [13] $end
$var wire 1 5 pix_count [12] $end
$var wire 1 6 pix_count [11] $end
$var wire 1 7 pix_count [10] $end
$var wire 1 8 pix_count [9] $end
$var wire 1 9 pix_count [8] $end
$var wire 1 : pix_count [7] $end
$var wire 1 ; pix_count [6] $end
$var wire 1 < pix_count [5] $end
$var wire 1 = pix_count [4] $end
$var wire 1 > pix_count [3] $end
$var wire 1 ? pix_count [2] $end
$var wire 1 @ pix_count [1] $end
$var wire 1 A pix_count [0] $end

$scope module i1 $end
$var wire 1 B gnd $end
$var wire 1 C vcc $end
$var wire 1 D unknown $end
$var tri1 1 E devclrn $end
$var tri1 1 F devpor $end
$var tri1 1 G devoe $end
$var wire 1 H pix_count[0]~output_o $end
$var wire 1 I pix_count[1]~output_o $end
$var wire 1 J pix_count[2]~output_o $end
$var wire 1 K pix_count[3]~output_o $end
$var wire 1 L pix_count[4]~output_o $end
$var wire 1 M pix_count[5]~output_o $end
$var wire 1 N pix_count[6]~output_o $end
$var wire 1 O pix_count[7]~output_o $end
$var wire 1 P pix_count[8]~output_o $end
$var wire 1 Q pix_count[9]~output_o $end
$var wire 1 R pix_count[10]~output_o $end
$var wire 1 S pix_count[11]~output_o $end
$var wire 1 T pix_count[12]~output_o $end
$var wire 1 U pix_count[13]~output_o $end
$var wire 1 V pix_count[14]~output_o $end
$var wire 1 W pix_count[15]~output_o $end
$var wire 1 X pix_count[16]~output_o $end
$var wire 1 Y pix_count[17]~output_o $end
$var wire 1 Z pix_count[18]~output_o $end
$var wire 1 [ pix_count[19]~output_o $end
$var wire 1 \ pix_count[20]~output_o $end
$var wire 1 ] byte_o[0]~output_o $end
$var wire 1 ^ byte_o[1]~output_o $end
$var wire 1 _ byte_o[2]~output_o $end
$var wire 1 ` byte_o[3]~output_o $end
$var wire 1 a byte_o[4]~output_o $end
$var wire 1 b byte_o[5]~output_o $end
$var wire 1 c byte_o[6]~output_o $end
$var wire 1 d byte_o[7]~output_o $end
$var wire 1 e clk~input_o $end
$var wire 1 f clk~inputclkctrl_outclk $end
$var wire 1 g pix_count_int[0]~21_combout $end
$var wire 1 h reset~input_o $end
$var wire 1 i rx_dv~input_o $end
$var wire 1 j reg_data[0]~0_combout $end
$var wire 1 k state~q $end
$var wire 1 l pix_count_int[0]~22 $end
$var wire 1 m pix_count_int[1]~24_combout $end
$var wire 1 n pix_count_int[1]~25 $end
$var wire 1 o pix_count_int[2]~26_combout $end
$var wire 1 p pix_count_int[2]~27 $end
$var wire 1 q pix_count_int[3]~28_combout $end
$var wire 1 r pix_count_int[3]~29 $end
$var wire 1 s pix_count_int[4]~30_combout $end
$var wire 1 t pix_count_int[4]~31 $end
$var wire 1 u pix_count_int[5]~32_combout $end
$var wire 1 v pix_count_int[5]~33 $end
$var wire 1 w pix_count_int[6]~34_combout $end
$var wire 1 x pix_count_int[6]~35 $end
$var wire 1 y pix_count_int[7]~36_combout $end
$var wire 1 z pix_count_int[7]~37 $end
$var wire 1 { pix_count_int[8]~38_combout $end
$var wire 1 | pix_count_int[8]~39 $end
$var wire 1 } pix_count_int[9]~40_combout $end
$var wire 1 ~ pix_count_int[9]~41 $end
$var wire 1 !! pix_count_int[10]~42_combout $end
$var wire 1 "! pix_count_int[10]~43 $end
$var wire 1 #! pix_count_int[11]~44_combout $end
$var wire 1 $! pix_count_int[11]~45 $end
$var wire 1 %! pix_count_int[12]~46_combout $end
$var wire 1 &! pix_count_int[12]~47 $end
$var wire 1 '! pix_count_int[13]~48_combout $end
$var wire 1 (! pix_count_int[13]~49 $end
$var wire 1 )! pix_count_int[14]~50_combout $end
$var wire 1 *! pix_count_int[14]~51 $end
$var wire 1 +! pix_count_int[15]~52_combout $end
$var wire 1 ,! pix_count_int[15]~53 $end
$var wire 1 -! pix_count_int[16]~54_combout $end
$var wire 1 .! pix_count_int[16]~55 $end
$var wire 1 /! pix_count_int[17]~56_combout $end
$var wire 1 0! pix_count_int[17]~57 $end
$var wire 1 1! pix_count_int[18]~58_combout $end
$var wire 1 2! pix_count_int[18]~59 $end
$var wire 1 3! pix_count_int[19]~60_combout $end
$var wire 1 4! pix_count_int[19]~61 $end
$var wire 1 5! pix_count_int[20]~62_combout $end
$var wire 1 6! Equal0~5_combout $end
$var wire 1 7! Equal0~6_combout $end
$var wire 1 8! Equal0~0_combout $end
$var wire 1 9! Equal0~1_combout $end
$var wire 1 :! Equal0~3_combout $end
$var wire 1 ;! Equal0~2_combout $end
$var wire 1 <! Equal0~4_combout $end
$var wire 1 =! pix_count_int[0]~23_combout $end
$var wire 1 >! rx_byte[0]~input_o $end
$var wire 1 ?! rx_byte[1]~input_o $end
$var wire 1 @! reg_data[1]~feeder_combout $end
$var wire 1 A! rx_byte[2]~input_o $end
$var wire 1 B! reg_data[2]~feeder_combout $end
$var wire 1 C! rx_byte[3]~input_o $end
$var wire 1 D! reg_data[3]~feeder_combout $end
$var wire 1 E! rx_byte[4]~input_o $end
$var wire 1 F! reg_data[4]~feeder_combout $end
$var wire 1 G! rx_byte[5]~input_o $end
$var wire 1 H! reg_data[5]~feeder_combout $end
$var wire 1 I! rx_byte[6]~input_o $end
$var wire 1 J! reg_data[6]~feeder_combout $end
$var wire 1 K! rx_byte[7]~input_o $end
$var wire 1 L! reg_data[7]~feeder_combout $end
$var wire 1 M! pix_count_int [20] $end
$var wire 1 N! pix_count_int [19] $end
$var wire 1 O! pix_count_int [18] $end
$var wire 1 P! pix_count_int [17] $end
$var wire 1 Q! pix_count_int [16] $end
$var wire 1 R! pix_count_int [15] $end
$var wire 1 S! pix_count_int [14] $end
$var wire 1 T! pix_count_int [13] $end
$var wire 1 U! pix_count_int [12] $end
$var wire 1 V! pix_count_int [11] $end
$var wire 1 W! pix_count_int [10] $end
$var wire 1 X! pix_count_int [9] $end
$var wire 1 Y! pix_count_int [8] $end
$var wire 1 Z! pix_count_int [7] $end
$var wire 1 [! pix_count_int [6] $end
$var wire 1 \! pix_count_int [5] $end
$var wire 1 ]! pix_count_int [4] $end
$var wire 1 ^! pix_count_int [3] $end
$var wire 1 _! pix_count_int [2] $end
$var wire 1 `! pix_count_int [1] $end
$var wire 1 a! pix_count_int [0] $end
$var wire 1 b! reg_data [7] $end
$var wire 1 c! reg_data [6] $end
$var wire 1 d! reg_data [5] $end
$var wire 1 e! reg_data [4] $end
$var wire 1 f! reg_data [3] $end
$var wire 1 g! reg_data [2] $end
$var wire 1 h! reg_data [1] $end
$var wire 1 i! reg_data [0] $end
$upscope $end
$upscope $end
$enddefinitions $end
#0
$dumpvars
0!
0"
b0 #
0$
0,
0+
0*
0)
0(
0'
0&
0%
0A
0@
0?
0>
0=
0<
0;
0:
09
08
07
06
05
04
03
02
01
00
0/
0.
0-
0B
1C
xD
1E
1F
1G
0H
0I
0J
0K
0L
0M
0N
0O
0P
0Q
0R
0S
0T
0U
0V
0W
0X
0Y
0Z
0[
0\
0]
0^
0_
0`
0a
0b
0c
0d
0e
0f
1g
0h
0i
0j
0k
0l
0m
1n
0o
0p
0q
1r
0s
0t
0u
1v
0w
0x
0y
1z
0{
0|
0}
1~
0!!
0"!
0#!
1$!
0%!
0&!
0'!
1(!
0)!
0*!
0+!
1,!
0-!
0.!
0/!
10!
01!
02!
03!
14!
05!
16!
17!
08!
09!
0:!
0;!
0<!
0=!
0>!
0?!
0@!
0A!
0B!
0C!
0D!
0E!
0F!
0G!
0H!
0I!
0J!
0K!
0L!
0a!
0`!
0_!
0^!
0]!
0\!
0[!
0Z!
0Y!
0X!
0W!
0V!
0U!
0T!
0S!
0R!
0Q!
0P!
0O!
0N!
0M!
0i!
0h!
0g!
0f!
0e!
0d!
0c!
0b!
$end
#10000
1!
1e
1f
#20000
0!
0e
0f
#30000
1!
1e
1f
#40000
1"
0!
1h
0e
0f
#50000
1!
1e
1f
#60000
1$
0!
1i
0e
0f
1=!
1j
#70000
1!
1e
1f
1k
1a!
1H
0=!
18!
1l
1A
0j
0g
1<!
1m
#80000
0$
0!
0i
0e
0f
#90000
1!
1e
1f
0k
#100000
b1 #
0!
1>!
0e
0f
#110000
1!
1e
1f
#120000
0!
0e
0f
#130000
1!
1e
1f
#140000
0!
0e
0f
#150000
1!
1e
1f
#160000
1$
0!
1i
0e
0f
1=!
1j
#170000
1!
1e
1f
1k
1i!
0a!
1`!
1I
0H
1]
0=!
0l
0n
1,
0A
1@
0j
1g
0m
1n
1m
1o
0o
#180000
0$
0!
0i
0e
0f
#190000
1!
1e
1f
0k
#200000
b11 #
b10 #
0!
0>!
1?!
0e
0f
1@!
#210000
1!
1e
1f
#220000
0!
0e
0f
#230000
1!
1e
1f
#240000
0!
0e
0f
#250000
1!
1e
1f
#260000
1$
0!
1i
0e
0f
1=!
1j
#270000
1!
1e
1f
1k
1h!
0i!
1a!
1H
0]
1^
0=!
1l
1+
0,
1A
0j
0g
0n
0m
1o
#280000
0$
0!
0i
0e
0f
#290000
1!
1e
1f
0k
#300000
b11 #
0!
1>!
0e
0f
#310000
1!
1e
1f
#320000
0!
0e
0f
#330000
1!
1e
1f
#340000
0!
0e
0f
#350000
1!
1e
1f
#360000
1$
0!
1i
0e
0f
1=!
1j
#370000
1!
1e
1f
1k
1i!
0a!
1_!
0`!
0I
1J
0H
1]
0=!
0l
1p
1n
1,
0A
1?
0@
0j
1g
0o
1m
0p
0m
1q
1o
0q
#380000
0$
0!
0i
0e
0f
#390000
1!
1e
1f
0k
#400000
b111 #
b101 #
b100 #
0!
0>!
0?!
1A!
0e
0f
0@!
1B!
#410000
1!
1e
1f
#420000
0!
0e
0f
#430000
1!
1e
1f
#440000
0!
0e
0f
#450000
1!
1e
1f
#460000
1$
0!
1i
0e
0f
1=!
1j
#470000
1!
1e
1f
1k
1g!
0h!
0i!
1a!
1H
0]
0^
1_
0=!
1l
1*
0+
0,
1A
0j
0g
1m
#480000
0$
0!
0i
0e
0f
#490000
1!
1e
1f
0k
#500000
b101 #
0!
1>!
0e
0f
#510000
1!
1e
1f
#520000
0!
0e
0f
#530000
1!
1e
1f
#540000
0!
0e
0f
#550000
1!
1e
1f
#560000
1$
0!
1i
0e
0f
1=!
1j
#570000
1!
1e
1f
1k
1i!
0a!
1`!
1I
0H
1]
0=!
0l
0n
1,
0A
1@
0j
1g
0m
1n
1p
1m
0o
0p
1o
1q
0q
#580000
0$
0!
0i
0e
0f
#590000
1!
1e
1f
0k
#600000
b111 #
b110 #
0!
0>!
1?!
0e
0f
1@!
#610000
1!
1e
1f
#620000
0!
0e
0f
#630000
1!
1e
1f
#640000
0!
0e
0f
#650000
1!
1e
1f
#660000
1$
0!
1i
0e
0f
1=!
1j
#670000
1!
1e
1f
1k
1h!
0i!
1a!
1H
0]
1^
0=!
1l
1+
0,
1A
0j
0g
0n
0m
1p
0o
1q
#680000
0$
0!
0i
0e
0f
#690000
1!
1e
1f
0k
#700000
b111 #
0!
1>!
0e
0f
#710000
1!
1e
1f
#720000
0!
0e
0f
#730000
1!
1e
1f
#740000
0!
0e
0f
#750000
1!
1e
1f
#760000
1$
0!
1i
0e
0f
1=!
1j
#770000
1!
1e
1f
1k
1i!
0a!
1^!
0_!
0`!
0I
0J
1K
0H
1]
0=!
0l
0r
0p
1n
1,
0A
1>
0?
0@
0j
1g
0q
1o
1m
1r
0m
1s
1q
0o
0s
#780000
0$
0!
0i
0e
0f
#790000
1!
1e
1f
0k
#800000
b1111 #
b1011 #
b1001 #
b1000 #
0!
0>!
0?!
0A!
1C!
0e
0f
0@!
0B!
1D!
#810000
1!
1e
1f
#820000
0!
0e
0f
#830000
1!
1e
1f
#840000
0!
0e
0f
#850000
1!
1e
1f
#860000
1$
0!
1i
0e
0f
1=!
1j
#870000
1!
1e
1f
1k
1f!
0g!
0h!
0i!
1a!
1H
0]
0^
0_
1`
0=!
1l
1)
0*
0+
0,
1A
0j
0g
1m
#880000
0$
0!
0i
0e
0f
#890000
1!
1e
1f
0k
#900000
b1001 #
0!
1>!
0e
0f
#910000
1!
1e
1f
#920000
0!
0e
0f
#930000
1!
1e
1f
#940000
0!
0e
0f
#950000
1!
1e
1f
#960000
1$
0!
1i
0e
0f
1=!
1j
#970000
1!
1e
1f
1k
1i!
0a!
1`!
1I
0H
1]
0=!
0l
0n
1,
0A
1@
0j
1g
0m
1n
1m
1o
0o
#980000
0$
0!
0i
0e
0f
#990000
1!
1e
1f
0k
