programador/simulation/qsim/programador.msim.vcd
$comment
	File created using the following command:
		vcd file programador.msim.vcd -direction
$end
$date
	Thu May  9 14:22:48 2024
$end
$version
	Questa Intel Starter FPGA Edition Version 2023.3
$end
$timescale
	1ps
$end

$scope module programador_vhd_vec_tst $end
$var wire 1 ! buisy $end
$var wire 1 " clk $end
$var wire 1 # data_in [7] $end
$var wire 1 $ data_in [6] $end
$var wire 1 % data_in [5] $end
$var wire 1 & data_in [4] $end
$var wire 1 ' data_in [3] $end
$var wire 1 ( data_in [2] $end
$var wire 1 ) data_in [1] $end
$var wire 1 * data_in [0] $end
$var wire 1 + err $end
$var wire 1 , r_w $end
$var wire 1 - reset $end
$var wire 1 . s_t $end
$var wire 1 / sca_o $end
$var wire 1 0 sda_o $end
$var wire 1 1 stop $end

$scope module i1 $end
$var wire 1 2 gnd $end
$var wire 1 3 vcc $end
$var wire 1 4 unknown $end
$var wire 1 5 devoe $end
$var wire 1 6 devclrn $end
$var wire 1 7 devpor $end
$var wire 1 8 ww_devoe $end
$var wire 1 9 ww_devclrn $end
$var wire 1 : ww_devpor $end
$var wire 1 ; ww_clk $end
$var wire 1 < ww_s_t $end
$var wire 1 = ww_r_w $end
$var wire 1 > ww_stop $end
$var wire 1 ? ww_reset $end
$var wire 1 @ ww_data_in [7] $end
$var wire 1 A ww_data_in [6] $end
$var wire 1 B ww_data_in [5] $end
$var wire 1 C ww_data_in [4] $end
$var wire 1 D ww_data_in [3] $end
$var wire 1 E ww_data_in [2] $end
$var wire 1 F ww_data_in [1] $end
$var wire 1 G ww_data_in [0] $end
$var wire 1 H ww_sda_o $end
$var wire 1 I ww_sca_o $end
$var wire 1 J ww_err $end
$var wire 1 K ww_buisy $end
$var wire 1 L \reset~inputclkctrl_INCLK_bus\ [3] $end
$var wire 1 M \reset~inputclkctrl_INCLK_bus\ [2] $end
$var wire 1 N \reset~inputclkctrl_INCLK_bus\ [1] $end
$var wire 1 O \reset~inputclkctrl_INCLK_bus\ [0] $end
$var wire 1 P \clk~inputclkctrl_INCLK_bus\ [3] $end
$var wire 1 Q \clk~inputclkctrl_INCLK_bus\ [2] $end
$var wire 1 R \clk~inputclkctrl_INCLK_bus\ [1] $end
$var wire 1 S \clk~inputclkctrl_INCLK_bus\ [0] $end
$var wire 1 T \sca_o~output_o\ $end
$var wire 1 U \sda_o~output_o\ $end
$var wire 1 V \err~output_o\ $end
$var wire 1 W \buisy~output_o\ $end
$var wire 1 X \clk~input_o\ $end
$var wire 1 Y \clk~inputclkctrl_outclk\ $end
$var wire 1 Z \r_w~input_o\ $end
$var wire 1 [ \reset~input_o\ $end
$var wire 1 \ \reset~inputclkctrl_outclk\ $end
$var wire 1 ] \state.b_write~q\ $end
$var wire 1 ^ \Selector7~0_combout\ $end
$var wire 1 _ \s_t~input_o\ $end
$var wire 1 ` \stop~input_o\ $end
$var wire 1 a \state~15_combout\ $end
$var wire 1 b \state.stop_1~q\ $end
$var wire 1 c \state.stop_2~q\ $end
$var wire 1 d \Selector0~0_combout\ $end
$var wire 1 e \state.idle~q\ $end
$var wire 1 f \state~16_combout\ $end
$var wire 1 g \state.start~q\ $end
$var wire 1 h \count[0]~0_combout\ $end
$var wire 1 i \Selector6~0_combout\ $end
$var wire 1 j \Selector5~0_combout\ $end
$var wire 1 k \state~14_combout\ $end
$var wire 1 l \state.ack_1~q\ $end
$var wire 1 m \state.ack_2~q\ $end
$var wire 1 n \sda_o~input_o\ $end
$var wire 1 o \Selector3~0_combout\ $end
$var wire 1 p \Selector3~1_combout\ $end
$var wire 1 q \state.idle_2~q\ $end
$var wire 1 r \Selector1~0_combout\ $end
$var wire 1 s \Selector1~1_combout\ $end
$var wire 1 t \state.b_trans~q\ $end
$var wire 1 u \WideOr5~0_combout\ $end
$var wire 1 v \data_in[6]~input_o\ $end
$var wire 1 w \data[6]~feeder_combout\ $end
$var wire 1 x \data_in[5]~input_o\ $end
$var wire 1 y \data_in[4]~input_o\ $end
$var wire 1 z \Mux0~0_combout\ $end
$var wire 1 { \data_in[7]~input_o\ $end
$var wire 1 | \Mux0~1_combout\ $end
$var wire 1 } \data_in[2]~input_o\ $end
$var wire 1 ~ \data[2]~feeder_combout\ $end
$var wire 1 !! \data_in[3]~input_o\ $end
$var wire 1 "! \data_in[1]~input_o\ $end
$var wire 1 #! \data_in[0]~input_o\ $end
$var wire 1 $! \Mux0~2_combout\ $end
$var wire 1 %! \Mux0~3_combout\ $end
$var wire 1 &! \Selector8~3_combout\ $end
$var wire 1 '! \state.error~0_combout\ $end
$var wire 1 (! \state.error~q\ $end
$var wire 1 )! \WideOr6~0_combout\ $end
$var wire 1 *! \Selector8~2_combout\ $end
$var wire 1 +! \Selector8~4_combout\ $end
$var wire 1 ,! count [3] $end
$var wire 1 -! count [2] $end
$var wire 1 .! count [1] $end
$var wire 1 /! count [0] $end
$var wire 1 0! data [7] $end
$var wire 1 1! data [6] $end
$var wire 1 2! data [5] $end
$var wire 1 3! data [4] $end
$var wire 1 4! data [3] $end
$var wire 1 5! data [2] $end
$var wire 1 6! data [1] $end
$var wire 1 7! data [0] $end
$var wire 1 8! \ALT_INV_reset~inputclkctrl_outclk\ $end
$var wire 1 9! \ALT_INV_reset~input_o\ $end
$var wire 1 :! \ALT_INV_WideOr6~0_combout\ $end
$upscope $end
$upscope $end
$enddefinitions $end
#0
$dumpvars
0!
0"
0+
1,
1-
0.
z/
00
01
02
13
x4
15
16
17
18
19
1:
0;
0<
1=
0>
1?
zH
zI
0J
0K
zT
zU
0V
0W
0X
0Y
1Z
1[
1\
0]
1^
0_
0`
0a
0b
0c
0d
0e
0f
0g
0h
1i
1j
0k
0l
0m
zn
0o
0p
0q
0r
0s
0t
1u
1v
1w
0x
1y
0z
0{
0|
1}
1~
0!!
0"!
1#!
0$!
0%!
0&!
0'!
0(!
1)!
1*!
1+!
08!
09!
0:!
0#
1$
0%
1&
0'
1(
0)
1*
0@
1A
0B
1C
0D
1E
0F
1G
x,!
0-!
0.!
0/!
00!
01!
02!
03!
04!
05!
06!
07!
1P
1Q
1R
0S
1L
1M
1N
1O
$end
#10000
1"
1;
1X
1S
1Y
#20000
0"
0-
0;
0?
0[
0X
19!
0O
0S
0Y
0\
18!
#30000
1"
1.
1;
1<
1_
1X
1S
1d
1f
1Y
1e
1g
11!
13!
15!
17!
1$!
1z
1h
1s
0f
0)!
1:!
0*!
1|
1%!
1&!
0+!
1W
1K
1!
0U
0H
0n
#40000
0"
0;
0X
0S
0Y
#50000
1"
1;
1X
1S
1Y
0g
1/!
1.!
1-!
1t
0u
1+!
0|
0%!
0h
0s
0&!
0+!
zU
0T
zH
0I
0/
0U
zn
0H
0n
#60000
0"
0;
0X
0S
0Y
#70000
1"
0.
1;
0<
0_
1X
1S
1Y
1]
0t
1u
0^
1h
1r
1s
zT
zI
z/
#80000
0"
0;
0X
0S
0Y
#90000
1"
1;
1X
1S
1Y
0]
0/!
1t
0u
0z
0$!
1^
0h
0r
0s
1%!
1|
1&!
0T
1+!
0I
0/
zU
zH
zn
#100000
0"
0;
0X
0S
0Y
#110000
1"
1;
1X
1S
1Y
1]
0t
1u
1h
0i
1r
1s
zT
zI
z/
#120000
0"
0;
0X
0S
0Y
#130000
1"
1;
1X
1S
1Y
0]
1/!
0.!
1t
0u
0|
0%!
0h
1i
0r
0s
0&!
0+!
0T
0I
0/
0U
0H
0n
#140000
0"
0;
0X
0S
0Y
#150000
1"
1;
1X
1S
1Y
1]
0t
1u
0^
1h
0i
1r
1s
zT
zI
z/
#160000
0"
0;
0X
0S
0Y
#170000
1"
1;
1X
1S
1Y
0]
0/!
1t
0u
1z
1$!
1^
0h
1i
0r
0s
1%!
1|
1&!
0T
1+!
0I
0/
zU
zH
zn
#180000
0"
0;
0X
0S
0Y
#190000
1"
1;
1X
1S
1Y
1]
0t
1u
1h
0j
1r
1s
zT
zI
z/
#200000
0"
0;
0X
0S
0Y
#210000
1"
1;
1X
1S
1Y
0]
1/!
1.!
0-!
1t
0u
0|
0%!
0h
1j
0r
0s
0&!
0+!
0T
0I
0/
0U
0H
0n
#220000
0"
0;
0X
0S
0Y
#230000
1"
1;
1X
1S
1Y
1]
0t
1u
0^
1h
0j
1r
1s
zT
zI
z/
#240000
0"
0;
0X
0S
0Y
#250000
1"
1;
1X
1S
1Y
0]
0/!
1t
0u
0z
0$!
1^
0h
1j
0r
0s
1%!
1|
1&!
0T
1+!
0I
0/
zU
zH
zn
#260000
0"
0;
0X
0S
0Y
#270000
1"
1;
1X
1S
1Y
1]
0t
1u
1h
0i
0j
1r
1s
zT
zI
z/
#280000
0"
0;
0X
0S
0Y
#290000
1"
1;
1X
1S
1Y
0]
1/!
0.!
1t
0u
0|
0%!
0h
1i
1j
0r
0s
0&!
0+!
0T
0I
0/
0U
0H
0n
#300000
0"
0;
0X
0S
0Y
#310000
1"
1;
1X
1S
1Y
1]
0t
1u
0^
1h
0i
0j
1r
1s
zT
zI
z/
#320000
0"
0;
0X
0S
0Y
#330000
1"
1;
1X
1S
1Y
0]
0/!
1t
0u
1z
1$!
1^
0h
1i
1j
0r
0s
1%!
1|
1&!
0T
1+!
0I
0/
zU
zH
zn
#340000
0"
0;
0X
0S
0Y
#350000
1"
1;
1X
1S
1Y
1]
0t
1u
1h
1k
zT
zI
z/
#360000
0"
1-
0;
1?
1[
0X
09!
1O
0S
0h
0Y
1\
08!
0]
0e
0d
1)!
0k
0+!
0:!
1*!
1+!
0U
0W
0H
0K
0!
zU
0n
zH
zn
#370000
1"
1;
1X
1S
1Y
#380000
0"
0;
0X
0S
0Y
#390000
1"
1;
1X
1S
1Y
#400000
0"
0;
0X
0S
0Y
#410000
1"
1;
1X
1S
1Y
#420000
0"
0;
0X
0S
0Y
#430000
1"
1;
1X
1S
1Y
#440000
0"
0-
0;
0?
0[
0X
19!
0O
0S
0Y
0\
18!
#450000
1"
1;
1X
1S
1Y
#460000
0"
0;
0X
0S
0Y
#470000
1"
1;
1X
1S
1Y
#480000
0"
0;
0X
0S
0Y
#490000
1"
1;
1X
1S
1Y
#500000
0"
0;
0X
0S
0Y
#510000
1"
1;
1X
1S
1Y
#520000
0"
0;
0X
0S
0Y
#530000
1"
1;
1X
1S
1Y
#540000
0"
0;
0X
0S
0Y
#550000
1"
1;
1X
1S
1Y
#560000
0"
0;
0X
0S
0Y
#570000
1"
1;
1X
1S
1Y
#580000
0"
0;
0X
0S
0Y
#590000
1"
1;
1X
1S
1Y
#600000
0"
0;
0X
0S
0Y
#610000
1"
1;
1X
1S
1Y
#620000
0"
0;
0X
0S
0Y
#630000
1"
1;
1X
1S
1Y
#640000
0"
0;
0X
0S
0Y
#650000
1"
1;
1X
1S
1Y
#660000
0"
0;
0X
0S
0Y
#670000
1"
1;
1X
1S
1Y
#680000
0"
0;
0X
0S
0Y
#690000
1"
1;
1X
1S
1Y
#700000
0"
0;
0X
0S
0Y
#710000
1"
1;
1X
1S
1Y
#720000
0"
0;
0X
0S
0Y
#730000
1"
1;
1X
1S
1Y
#740000
0"
0;
0X
0S
0Y
#750000
1"
1;
1X
1S
1Y
#760000
0"
0;
0X
0S
0Y
#770000
1"
1;
1X
1S
1Y
#780000
0"
0;
0X
0S
0Y
#790000
1"
1;
1X
1S
1Y
#800000
0"
0;
0X
0S
0Y
#810000
1"
1;
1X
1S
1Y
#820000
0"
0;
0X
0S
0Y
#830000
1"
1;
1X
1S
1Y
#840000
0"
0;
0X
0S
0Y
#850000
1"
1;
1X
1S
1Y
#860000
0"
0;
0X
0S
0Y
#870000
1"
1;
1X
1S
1Y
#880000
0"
0;
0X
0S
0Y
#890000
1"
1;
1X
1S
1Y
#900000
0"
0;
0X
0S
0Y
#910000
1"
1;
1X
1S
1Y
#920000
0"
1-
0;
1?
1[
0X
09!
1O
0S
0Y
1\
08!
#930000
1"
1;
1X
1S
1Y
#940000
0"
0;
0X
0S
0Y
#950000
1"
1;
1X
1S
1Y
#960000
0"
0;
0X
0S
0Y
#970000
1"
1;
1X
1S
1Y
#980000
0"
0;
0X
0S
0Y
#990000
1"
1;
1X
1S
1Y
#1000000
0"
1)
0*
0;
0G
1F
1"!
0#!
0X
0S
0Y
#1010000
1"
1;
1X
1S
1Y
#1020000
0"
0;
0X
0S
0Y
#1030000
1"
1;
1X
1S
1Y
#1040000
0"
0;
0X
0S
0Y
#1050000
1"
1;
1X
1S
1Y
#1060000
0"
0;
0X
0S
0Y
#1070000
1"
1;
1X
1S
1Y
#1080000
0"
0;
0X
0S
0Y
#1090000
1"
1;
1X
1S
1Y
#1100000
0"
0;
0X
0S
0Y
#1110000
1"
1;
1X
1S
1Y
#1120000
0"
0-
1.
0;
0?
1<
1_
0[
0X
19!
0O
0S
1d
1f
0Y
0\
18!
#1130000
1"
1;
1X
1S
1Y
1e
1g
16!
07!
0$!
1h
1s
0f
0)!
1:!
0*!
0%!
0&!
0+!
1W
1K
1!
0U
0H
0n
#1140000
0"
0;
0X
0S
0Y
#1150000
1"
1;
1X
1S
1Y
0g
1/!
1.!
1-!
1t
0u
1&!
0|
1%!
1$!
0h
0s
0%!
0&!
1+!
0+!
0T
0I
zU
0/
zH
0U
0H
zn
0n
#1160000
0"
0;
0X
0S
0Y
#1170000
1"
1;
1X
1S
1Y
1]
0t
1u
0^
1h
1r
1s
zT
zI
z/
#1180000
0"
0;
0X
0S
0Y
#1190000
1"
1;
1X
1S
1Y
0]
0/!
1t
0u
0z
0$!
1^
0h
0r
0s
1%!
1|
1&!
0T
1+!
0I
0/
zU
zH
zn
#1200000
0"
0;
0X
0S
0Y
#1210000
1"
1;
1X
1S
1Y
1]
0t
1u
1h
0i
1r
1s
zT
zI
z/
#1220000
0"
0;
0X
0S
0Y
#1230000
1"
1;
1X
1S
1Y
0]
1/!
0.!
1t
0u
0|
0%!
1$!
0h
1i
0r
0s
1%!
0&!
0+!
0T
0I
0/
0U
0H
0n
#1240000
0"
0;
0X
0S
0Y
#1250000
1"
1;
1X
1S
1Y
1]
0t
1u
0^
1h
0i
1r
1s
zT
zI
z/
#1260000
0"
0;
0X
0S
0Y
#1270000
1"
1;
1X
1S
1Y
0]
0/!
1t
0u
1z
0$!
1^
0h
1i
0r
0s
0%!
1|
1&!
0T
1+!
0I
0/
zU
zH
zn
#1280000
0"
0;
0X
0S
0Y
#1290000
1"
1;
1X
1S
1Y
1]
0t
1u
1h
0j
1r
1s
zT
zI
z/
#1300000
0"
0;
0X
0S
0Y
#1310000
1"
1;
1X
1S
1Y
0]
1/!
1.!
0-!
1t
0u
0&!
0|
1%!
1$!
0h
1j
0r
0s
0%!
1&!
0+!
1+!
0&!
0T
0+!
0I
0U
0/
0H
zU
zH
0U
0n
0H
zn
0n
#1320000
0"
0;
0X
0S
0Y
#1330000
1"
1;
1X
1S
1Y
1]
0t
1u
0^
1h
0j
1r
1s
zT
zI
z/
#1340000
0"
0;
0X
0S
0Y
#1350000
1"
1;
1X
1S
1Y
0]
0/!
1t
0u
0z
0$!
1^
0h
1j
0r
0s
1%!
1|
1&!
0T
1+!
0I
0/
zU
zH
zn
#1360000
0"
0.
0;
0<
0_
0X
0S
0Y
#1370000
1"
1;
1X
1S
1Y
1]
0t
1u
1h
0i
0j
1r
1s
zT
zI
z/
#1380000
0"
0;
0X
0S
0Y
#1390000
1"
1;
1X
1S
1Y
0]
1/!
0.!
1t
0u
0|
0%!
1$!
0h
1i
1j
0r
0s
1%!
0&!
0+!
1&!
0T
1+!
0I
0/
0U
0H
zU
zH
0n
zn
#1400000
0"
0;
0X
0S
0Y
#1410000
1"
1;
1X
1S
1Y
1]
0t
1u
0^
1h
0i
0j
1r
1s
zT
zI
z/
#1420000
0"
0;
0X
0S
0Y
#1430000
1"
1;
1X
1S
1Y
0]
0/!
1t
0u
1z
0$!
1^
0h
1i
1j
0r
0s
0%!
1|
0&!
0T
0+!
0I
0/
0U
0H
0n
#1440000
0"
0;
0X
0S
0Y
#1450000
1"
1;
1X
1S
1Y
1]
0t
1u
1h
1k
zT
zI
z/
#1460000
0"
0;
0X
0S
0Y
#1470000
1"
1;
1X
1S
1Y
0]
1/!
1.!
1-!
1l
0u
1&!
0|
1%!
1$!
0h
0k
0%!
0&!
0T
0I
0/
#1480000
0"
0;
0X
0S
0Y
#1490000
1"
1;
1X
1S
1Y
0l
1m
1p
1u
zT
zI
z/
#1500000
0"
0;
0X
0S
0Y
#1510000
1"
1;
1X
1S
1Y
0m
1q
1s
1)!
0p
0:!
1*!
1+!
0W
0K
0!
zU
zH
zn
#1520000
0"
0;
0X
0S
0Y
#1530000
1"
1;
1X
1S
1Y
0q
1t
0u
0s
0)!
1:!
0*!
0+!
0T
1W
0I
1K
0/
1!
0U
0H
0n
#1540000
0"
0;
0X
0S
0Y
#1550000
1"
1;
1X
1S
1Y
1]
0t
1u
0^
1h
1r
1s
zT
zI
z/
#1560000
0"
0;
0X
0S
0Y
#1570000
1"
1;
1X
1S
1Y
0]
0/!
1t
0u
0z
0$!
1^
0h
0r
0s
1%!
1|
1&!
0T
1+!
0I
0/
zU
zH
zn
#1580000
0"
0;
0X
0S
0Y
#1590000
1"
1;
1X
1S
1Y
1]
0t
1u
1h
0i
1r
1s
zT
zI
z/
#1600000
0"
0;
0X
0S
0Y
#1610000
1"
1;
1X
1S
1Y
0]
1/!
0.!
1t
0u
0|
0%!
1$!
0h
1i
0r
0s
1%!
0&!
0+!
0T
0I
0/
0U
0H
0n
#1620000
0"
0;
0X
0S
0Y
#1630000
1"
1;
1X
1S
1Y
1]
0t
1u
0^
1h
0i
1r
1s
zT
zI
z/
#1640000
0"
0;
0X
0S
0Y
#1650000
1"
1;
1X
1S
1Y
0]
0/!
1t
0u
1z
0$!
1^
0h
1i
0r
0s
0%!
1|
1&!
0T
1+!
0I
0/
zU
zH
zn
#1660000
0"
0;
0X
0S
0Y
#1670000
1"
1;
1X
1S
1Y
1]
0t
1u
1h
0j
1r
1s
zT
zI
z/
#1680000
0"
0;
0X
0S
0Y
#1690000
1"
1;
1X
1S
1Y
0]
1/!
1.!
0-!
1t
0u
0&!
0|
1%!
1$!
0h
1j
0r
0s
0%!
1&!
0+!
1+!
0&!
0T
0+!
0I
0U
0/
0H
zU
zH
0U
0n
0H
zn
0n
#1700000
0"
0;
0X
0S
0Y
#1710000
1"
1;
1X
1S
1Y
1]
0t
1u
0^
1h
0j
1r
1s
zT
zI
z/
#1720000
0"
0;
0X
0S
0Y
#1730000
1"
1;
1X
1S
1Y
0]
0/!
1t
0u
0z
0$!
1^
0h
1j
0r
0s
1%!
1|
1&!
0T
1+!
0I
0/
zU
zH
zn
#1740000
0"
0;
0X
0S
0Y
#1750000
1"
1;
1X
1S
1Y
1]
0t
1u
1h
0i
0j
1r
1s
zT
zI
z/
#1760000
0"
0;
0X
0S
0Y
#1770000
1"
1;
1X
1S
1Y
0]
1/!
0.!
1t
0u
0|
0%!
1$!
0h
1i
1j
0r
0s
1%!
0&!
0+!
1&!
0T
1+!
0I
0/
0U
0H
zU
zH
0n
zn
#1780000
0"
0;
0X
0S
0Y
#1790000
1"
1;
1X
1S
1Y
1]
0t
1u
0^
1h
0i
0j
1r
1s
zT
zI
z/
#1800000
0"
0;
0X
0S
0Y
#1810000
1"
1;
1X
1S
1Y
0]
0/!
1t
0u
1z
0$!
1^
0h
1i
1j
0r
0s
0%!
1|
0&!
0T
0+!
0I
0/
0U
0H
0n
#1820000
0"
0;
0X
0S
0Y
#1830000
1"
1;
1X
1S
1Y
1]
0t
1u
1h
1k
zT
zI
z/
#1840000
0"
0;
0X
0S
0Y
#1850000
1"
1;
1X
1S
1Y
0]
1/!
1.!
1-!
1l
0u
1&!
0|
1%!
1$!
0h
0k
0%!
0&!
0T
0I
0/
#1860000
0"
0;
0X
0S
0Y
#1870000
1"
1;
1X
1S
1Y
0l
1m
1p
1u
zT
zI
z/
#1880000
0"
0;
0X
0S
0Y
#1890000
1"
1;
1X
1S
1Y
0m
1q
1s
1)!
0p
0:!
1*!
1+!
0W
0K
0!
zU
zH
zn
#1900000
0"
0;
0X
0S
0Y
#1910000
1"
1;
1X
1S
1Y
0q
1t
0u
0s
0)!
1:!
0*!
0+!
0T
1W
0I
1K
0/
1!
0U
0H
0n
#1920000
0"
0;
0X
0S
0Y
#1930000
1"
1;
1X
1S
1Y
1]
0t
1u
0^
1h
1r
1s
zT
zI
z/
#1940000
0"
0;
0X
0S
0Y
#1950000
1"
1;
1X
1S
1Y
0]
0/!
1t
0u
0z
0$!
1^
0h
0r
0s
1%!
1|
1&!
0T
1+!
0I
0/
zU
zH
zn
#1960000
0"
0;
0X
0S
0Y
#1970000
1"
1;
1X
1S
1Y
1]
0t
1u
1h
0i
1r
1s
zT
zI
z/
#1980000
0"
0;
0X
0S
0Y
#1990000
1"
1;
1X
1S
1Y
0]
1/!
0.!
1t
0u
0|
0%!
1$!
0h
1i
0r
0s
1%!
0&!
0+!
0T
0I
0/
0U
0H
0n
#2000000
0"
1*
0;
1G
1#!
0X
0S
0Y
#2010000
1"
1;
1X
1S
1Y
1]
0t
17!
1u
0^
1h
0i
1r
1s
zT
zI
z/
#2020000
0"
0;
0X
0S
0Y
#2030000
1"
1;
1X
1S
1Y
0]
0/!
1t
0u
1z
1^
0h
1i
0r
0s
1|
1&!
0T
1+!
0I
0/
zU
zH
zn
#2040000
0"
0;
0X
0S
0Y
#2050000
1"
1;
1X
1S
1Y
1]
0t
1u
1h
0j
1r
1s
zT
zI
z/
#2060000
0"
0;
0X
0S
0Y
#2070000
1"
1;
1X
1S
1Y
0]
1/!
1.!
0-!
1t
0u
0|
0%!
0h
1j
0r
0s
0&!
0+!
0T
0I
0/
0U
0H
0n
#2080000
0"
1-
0;
1?
1[
0X
09!
1O
0S
0Y
1\
08!
0e
0t
1u
0d
1)!
0:!
1*!
1+!
zT
0W
zI
0K
z/
0!
zU
zH
zn
#2090000
1"
1;
1X
1S
1Y
#2100000
0"
0;
0X
0S
0Y
#2110000
1"
1;
1X
1S
1Y
#2120000
0"
0;
0X
0S
0Y
#2130000
1"
1;
1X
1S
1Y
#2140000
0"
0;
0X
0S
0Y
#2150000
1"
1;
1X
1S
1Y
#2160000
0"
0;
0X
0S
0Y
#2170000
1"
1;
1X
1S
1Y
#2180000
0"
0;
0X
0S
0Y
#2190000
1"
1;
1X
1S
1Y
#2200000
0"
0;
0X
0S
0Y
#2210000
1"
1;
1X
1S
1Y
#2220000
0"
0;
0X
0S
0Y
#2230000
1"
1;
1X
1S
1Y
#2240000
0"
0-
1.
0;
0?
1<
1_
0[
0X
19!
0O
0S
1d
1f
0Y
0\
18!
#2250000
1"
1;
1X
1S
1Y
1e
1g
1h
1s
0f
0)!
1:!
0*!
0+!
1W
1K
1!
0U
0H
0n
#2260000
0"
0;
0X
0S
0Y
#2270000
1"
1;
1X
1S
1Y
0g
1-!
1t
0u
0h
0s
0T
0I
0/
#2280000
0"
0;
0X
0S
0Y
#2290000
1"
1;
1X
1S
1Y
1]
0t
1u
0^
1h
1r
1s
zT
zI
z/
#2300000
0"
0;
0X
0S
0Y
#2310000
1"
1;
1X
1S
1Y
0]
0/!
1t
0u
0z
0$!
1^
0h
0r
0s
1%!
1|
1&!
0T
1+!
0I
0/
zU
zH
zn
#2320000
0"
0;
0X
0S
0Y
#2330000
1"
1;
1X
1S
1Y
1]
0t
1u
1h
0i
1r
1s
zT
zI
z/
#2340000
0"
0;
0X
0S
0Y
#2350000
1"
1;
1X
1S
1Y
0]
1/!
0.!
1t
0u
0|
0%!
1$!
0h
1i
0r
0s
1%!
0&!
0+!
0T
0I
0/
0U
0H
0n
#2360000
0"
0;
0X
0S
0Y
#2370000
1"
1;
1X
1S
1Y
1]
0t
1u
0^
1h
0i
1r
1s
zT
zI
z/
#2380000
0"
0;
0X
0S
0Y
#2390000
1"
1;
1X
1S
1Y
0]
0/!
1t
0u
1z
1^
0h
1i
0r
0s
1|
1&!
0T
1+!
0I
0/
zU
zH
zn
#2400000
0"
0.
0;
0<
0_
0X
0S
0Y
#2410000
1"
1;
1X
1S
1Y
1]
0t
1u
1h
0j
1r
1s
zT
zI
z/
#2420000
0"
0;
0X
0S
0Y
#2430000
1"
1;
1X
1S
1Y
0]
1/!
1.!
0-!
1t
0u
0|
0%!
0h
1j
0r
0s
0&!
0+!
0T
0I
0/
0U
0H
0n
#2440000
0"
0;
0X
0S
0Y
#2450000
1"
1;
1X
1S
1Y
1]
0t
1u
0^
1h
0j
1r
1s
zT
zI
z/
#2460000
0"
0;
0X
0S
0Y
#2470000
1"
1;
1X
1S
1Y
0]
0/!
1t
0u
0z
0$!
1^
0h
1j
0r
0s
1%!
1|
1&!
0T
1+!
0I
0/
zU
zH
zn
#2480000
0"
0;
0X
0S
0Y
#2490000
1"
1;
1X
1S
1Y
1]
0t
1u
1h
0i
0j
1r
1s
zT
zI
z/
#2500000
0"
0;
0X
0S
0Y
#2510000
1"
1;
1X
1S
1Y
0]
1/!
0.!
1t
0u
0|
0%!
1$!
0h
1i
1j
0r
0s
1%!
0&!
0+!
1&!
0T
1+!
0I
0/
0U
0H
zU
zH
0n
zn
#2520000
0"
0;
0X
0S
0Y
#2530000
1"
1;
1X
1S
1Y
1]
0t
1u
0^
1h
0i
0j
1r
1s
zT
zI
z/
#2540000
0"
0;
0X
0S
0Y
#2550000
1"
1;
1X
1S
1Y
0]
0/!
1t
0u
1z
1^
0h
1i
1j
0r
0s
1|
0T
0I
0/
#2560000
0"
1-
0;
1?
1[
0X
09!
1O
0S
0Y
1\
08!
0e
0t
1u
0+!
0d
1)!
0:!
1*!
1+!
0U
zT
0W
0H
zI
0K
z/
0!
zU
0n
zH
zn
#2570000
1"
1;
1X
1S
1Y
#2580000
0"
0;
0X
0S
0Y
#2590000
1"
1;
1X
1S
1Y
#2600000
0"
0;
0X
0S
0Y
#2610000
1"
1;
1X
1S
1Y
#2620000
0"
0;
0X
0S
0Y
#2630000
1"
1;
1X
1S
1Y
#2640000
0"
0-
0;
0?
0[
0X
19!
0O
0S
0Y
0\
18!
#2650000
1"
1;
1X
1S
1Y
#2660000
0"
0;
0X
0S
0Y
#2670000
1"
1;
1X
1S
1Y
#2680000
0"
0;
0X
0S
0Y
#2690000
1"
1;
1X
1S
1Y
#2700000
0"
0;
0X
0S
0Y
#2710000
1"
1;
1X
1S
1Y
#2720000
0"
0;
0X
0S
0Y
#2730000
1"
1;
1X
1S
1Y
#2740000
0"
0;
0X
0S
0Y
#2750000
1"
1;
1X
1S
1Y
#2760000
0"
0;
0X
0S
0Y
#2770000
1"
1;
1X
1S
1Y
#2780000
0"
0;
0X
0S
0Y
#2790000
1"
1;
1X
1S
1Y
#2800000
0"
0;
0X
0S
0Y
#2810000
1"
1;
1X
1S
1Y
#2820000
0"
0;
0X
0S
0Y
#2830000
1"
1;
1X
1S
1Y
#2840000
0"
0;
0X
0S
0Y
#2850000
1"
1;
1X
1S
1Y
#2860000
0"
0;
0X
0S
0Y
#2870000
1"
1;
1X
1S
1Y
#2880000
0"
0;
0X
0S
0Y
#2890000
1"
1;
1X
1S
1Y
#2900000
0"
0;
0X
0S
0Y
#2910000
1"
1;
1X
1S
1Y
#2920000
0"
0;
0X
0S
0Y
#2930000
1"
1;
1X
1S
1Y
#2940000
0"
0;
0X
0S
0Y
#2950000
1"
1;
1X
1S
1Y
#2960000
0"
0;
0X
0S
0Y
#2970000
1"
1;
1X
1S
1Y
#2980000
0"
0;
0X
0S
0Y
#2990000
1"
1;
1X
1S
1Y
