programador/simulation/qsim/programador.msim.vcd
$comment
	File created using the following command:
		vcd file programador.msim.vcd -direction
$end
$date
	Fri Apr 26 16:04:16 2024
$end
$version
	Questa Intel Starter FPGA Edition Version 2023.3
$end
$timescale
	1ps
$end

$scope module serialout_vhd_vec_tst $end
$var wire 1 ! carga $end
$var wire 1 " clk $end
$var wire 1 # data_in [7] $end
$var wire 1 $ data_in [6] $end
$var wire 1 % data_in [5] $end
$var wire 1 & data_in [4] $end
$var wire 1 ' data_in [3] $end
$var wire 1 ( data_in [2] $end
$var wire 1 ) data_in [1] $end
$var wire 1 * data_in [0] $end
$var wire 1 + data_out $end
$var wire 1 , enable_out $end

$scope module i1 $end
$var wire 1 - gnd $end
$var wire 1 . vcc $end
$var wire 1 / unknown $end
$var wire 1 0 devoe $end
$var wire 1 1 devclrn $end
$var wire 1 2 devpor $end
$var wire 1 3 ww_devoe $end
$var wire 1 4 ww_devclrn $end
$var wire 1 5 ww_devpor $end
$var wire 1 6 ww_carga $end
$var wire 1 7 ww_enable_out $end
$var wire 1 8 ww_data_in [7] $end
$var wire 1 9 ww_data_in [6] $end
$var wire 1 : ww_data_in [5] $end
$var wire 1 ; ww_data_in [4] $end
$var wire 1 < ww_data_in [3] $end
$var wire 1 = ww_data_in [2] $end
$var wire 1 > ww_data_in [1] $end
$var wire 1 ? ww_data_in [0] $end
$var wire 1 @ ww_data_out $end
$var wire 1 A ww_clk $end
$var wire 1 B \clk~inputclkctrl_INCLK_bus\ [3] $end
$var wire 1 C \clk~inputclkctrl_INCLK_bus\ [2] $end
$var wire 1 D \clk~inputclkctrl_INCLK_bus\ [1] $end
$var wire 1 E \clk~inputclkctrl_INCLK_bus\ [0] $end
$var wire 1 F \carga~inputclkctrl_INCLK_bus\ [3] $end
$var wire 1 G \carga~inputclkctrl_INCLK_bus\ [2] $end
$var wire 1 H \carga~inputclkctrl_INCLK_bus\ [1] $end
$var wire 1 I \carga~inputclkctrl_INCLK_bus\ [0] $end
$var wire 1 J \data_out~output_o\ $end
$var wire 1 K \clk~input_o\ $end
$var wire 1 L \clk~inputclkctrl_outclk\ $end
$var wire 1 M \enable_out~input_o\ $end
$var wire 1 N \cnt[0]~1_combout\ $end
$var wire 1 O \cnt[1]~0_combout\ $end
$var wire 1 P \cnt[2]~2_combout\ $end
$var wire 1 Q \data_in[6]~input_o\ $end
$var wire 1 R \carga~input_o\ $end
$var wire 1 S \carga~inputclkctrl_outclk\ $end
$var wire 1 T \data_in[7]~input_o\ $end
$var wire 1 U \data_in[5]~input_o\ $end
$var wire 1 V \data_in[4]~input_o\ $end
$var wire 1 W \Mux0~0_combout\ $end
$var wire 1 X \Mux0~1_combout\ $end
$var wire 1 Y \data_in[3]~input_o\ $end
$var wire 1 Z \data_in[2]~input_o\ $end
$var wire 1 [ \data_in[1]~input_o\ $end
$var wire 1 \ \data_in[0]~input_o\ $end
$var wire 1 ] \Mux0~2_combout\ $end
$var wire 1 ^ \Mux0~3_combout\ $end
$var wire 1 _ \Mux0~4_combout\ $end
$var wire 1 ` \data_out~reg0_q\ $end
$var wire 1 a \data_out~enfeeder_combout\ $end
$var wire 1 b \data_out~1_combout\ $end
$var wire 1 c \data_out~en_q\ $end
$var wire 1 d cnt [2] $end
$var wire 1 e cnt [1] $end
$var wire 1 f cnt [0] $end
$var wire 1 g data [7] $end
$var wire 1 h data [6] $end
$var wire 1 i data [5] $end
$var wire 1 j data [4] $end
$var wire 1 k data [3] $end
$var wire 1 l data [2] $end
$var wire 1 m data [1] $end
$var wire 1 n data [0] $end
$var wire 1 o \ALT_INV_data_out~1_combout\ $end
$upscope $end
$upscope $end
$enddefinitions $end
#0
$dumpvars
1!
0"
z+
0,
0-
1.
x/
10
11
12
13
14
15
16
07
z@
0A
zJ
0K
0L
0M
0N
0O
0P
0Q
1R
1S
0T
0U
0V
0W
0X
0Y
0Z
0[
0\
0]
0^
0_
0`
1a
1b
0c
0o
0#
0$
0%
0&
0'
0(
0)
0*
08
09
0:
0;
0<
0=
0>
0?
0d
0e
0f
0g
0h
0i
0j
0k
0l
0m
0n
1B
1C
1D
0E
1F
1G
1H
1I
$end
#10000
1"
1A
1K
1E
1L
#20000
0"
0!
1,
0A
06
17
1M
0R
0K
0I
0E
1N
0b
1o
0L
0S
#30000
1"
1#
1$
1%
1&
1'
1(
1)
1*
1A
1?
1>
1=
1<
1;
1:
19
18
1T
1Q
1U
1V
1Y
1Z
1[
1\
1K
1E
1L
1f
1c
0N
1O
0J
0@
0+
#40000
0"
0A
0K
0E
0L
#50000
1"
1A
1K
1E
1L
0f
1e
1N
#60000
0"
0A
0K
0E
0L
#70000
1"
0#
0$
0%
0&
0'
0(
0)
0*
1A
0?
0>
0=
0<
0;
0:
09
08
0T
0Q
0U
0V
0Y
0Z
0[
0\
1K
1E
1L
1f
0N
0O
1P
1W
1]
#80000
0"
0A
0K
0E
0L
#90000
1"
1A
1K
1E
1L
0f
0e
1d
1X
1^
1N
0W
0]
0^
0X
1_
0_
#100000
0"
1*
1!
0,
0A
1?
16
07
0M
1R
1\
0K
1I
0E
0N
1b
0o
0L
1S
0c
1n
1]
zJ
1^
z@
z+
#110000
1"
1A
1K
1E
1L
#120000
0"
0A
0K
0E
0L
#130000
1"
1A
1K
1E
1L
#140000
0"
0A
0K
0E
0L
#150000
1"
1A
1K
1E
1L
#160000
0"
0A
0K
0E
0L
#170000
1"
1A
1K
1E
1L
#180000
0"
0A
0K
0E
0L
#190000
1"
1A
1K
1E
1L
#200000
0"
0*
0!
1,
1#
1%
1'
1)
0A
0?
1>
1<
1:
18
06
17
1M
0R
1T
1U
1Y
1[
0\
0K
0I
0E
0n
1m
1k
1i
1g
1N
0b
1o
0]
0L
0S
0^
#210000
1"
1A
1K
1E
1L
1f
1c
0N
1O
1W
1]
1^
1X
0J
1_
0@
0+
#220000
0"
0A
0K
0E
0L
#230000
1"
1A
1K
1E
1L
0f
1e
1`
1N
0W
0]
0^
0X
1J
0_
1@
1+
#240000
0"
0A
0K
0E
0L
#250000
1"
1A
1K
1E
1L
1f
0`
0N
0O
0P
1W
1]
1^
1X
0J
1_
0@
0+
#260000
0"
0A
0K
0E
0L
#270000
1"
1A
1K
1E
1L
0f
0e
0d
1`
1N
0W
0]
0^
0X
1J
0_
1@
1+
#280000
0"
0A
0K
0E
0L
#290000
1"
1A
1K
1E
1L
1f
0`
0N
1O
1W
1]
1^
1X
0J
1_
0@
0+
#300000
0"
1*
1!
0,
0#
0%
0'
0A
1?
0<
0:
08
16
07
0M
1R
0T
0U
0Y
1\
0K
1I
0E
1N
0O
1b
0o
0L
1S
0c
0g
0i
0k
1n
0W
zJ
0X
z@
z+
#310000
1"
1A
1K
1E
1L
1`
#320000
0"
0A
0K
0E
0L
#330000
1"
0!
1,
1A
06
17
1M
0R
1K
0I
1E
0N
1O
0b
1o
1L
0S
0f
1e
1c
0^
1N
0]
0_
1J
1@
1+
#340000
0"
0A
0K
0E
0L
#350000
1"
1A
1K
1E
1L
1f
0`
0N
0O
1P
1W
1]
0J
0@
0+
#360000
0"
0A
0K
0E
0L
#370000
1"
1A
1K
1E
1L
0f
0e
1d
1X
1^
1N
0W
0X
1_
0_
#380000
0"
0A
0K
0E
0L
#390000
1"
1A
1K
1E
1L
1f
0N
1O
#400000
0"
0*
0)
1(
0A
0?
0>
1=
1Z
0[
0\
0K
0E
0L
#410000
1"
1A
1K
1E
1L
0f
1e
0^
1N
0]
#420000
0"
0A
0K
0E
0L
#430000
1"
1A
1K
1E
1L
1f
0N
0O
0P
1W
1]
#440000
0"
0A
0K
0E
0L
#450000
1"
1A
1K
1E
1L
0f
0e
0d
1X
1^
1N
0W
0X
1_
#460000
0"
0A
0K
0E
0L
#470000
1"
1A
1K
1E
1L
1f
1`
0N
1O
1J
1@
1+
#480000
0"
0A
0K
0E
0L
#490000
1"
1A
1K
1E
1L
0f
1e
0^
1N
0]
0_
#500000
0"
1*
0A
1?
1\
0K
0E
0L
#510000
1"
1A
1K
1E
1L
1f
0`
0N
0O
1P
1W
1]
0J
0@
0+
#520000
0"
0A
0K
0E
0L
#530000
1"
1A
1K
1E
1L
0f
0e
1d
1X
1^
1N
0W
0X
1_
0_
#540000
0"
0A
0K
0E
0L
#550000
1"
1A
1K
1E
1L
1f
0N
1O
#560000
0"
0A
0K
0E
0L
#570000
1"
1A
1K
1E
1L
0f
1e
0^
1N
0]
#580000
0"
0A
0K
0E
0L
#590000
1"
1A
1K
1E
1L
1f
0N
0O
0P
1W
1]
#600000
0"
0*
1)
0A
0?
1>
1[
0\
0K
0E
0L
#610000
1"
1A
1K
1E
1L
0f
0e
0d
1X
1^
1N
0W
0X
1_
#620000
0"
0A
0K
0E
0L
#630000
1"
1A
1K
1E
1L
1f
1`
0N
1O
1J
1@
1+
#640000
0"
0A
0K
0E
0L
#650000
1"
1A
1K
1E
1L
0f
1e
0^
1N
0]
0_
#660000
0"
0A
0K
0E
0L
#670000
1"
1A
1K
1E
1L
1f
0`
0N
0O
1P
1W
1]
0J
0@
0+
#680000
0"
0A
0K
0E
0L
#690000
1"
1A
1K
1E
1L
0f
0e
1d
1X
1^
1N
0W
0X
1_
0_
#700000
0"
1*
0A
1?
1\
0K
0E
0L
#710000
1"
1A
1K
1E
1L
1f
0N
1O
#720000
0"
0A
0K
0E
0L
#730000
1"
1A
1K
1E
1L
0f
1e
0^
1N
0]
#740000
0"
0A
0K
0E
0L
#750000
1"
1A
1K
1E
1L
1f
0N
0O
0P
1W
1]
#760000
0"
0A
0K
0E
0L
#770000
1"
1A
1K
1E
1L
0f
0e
0d
1X
1^
1N
0W
0X
1_
#780000
0"
0A
0K
0E
0L
#790000
1"
1A
1K
1E
1L
1f
1`
0N
1O
1J
1@
1+
#800000
0"
0*
0)
0(
1'
0A
0?
0>
0=
1<
1Y
0Z
0[
0\
0K
0E
0L
#810000
1"
1A
1K
1E
1L
0f
1e
0^
1N
0]
0_
#820000
0"
0A
0K
0E
0L
#830000
1"
1A
1K
1E
1L
1f
0`
0N
0O
1P
1W
1]
0J
0@
0+
#840000
0"
0A
0K
0E
0L
#850000
1"
1A
1K
1E
1L
0f
0e
1d
1X
1^
1N
0W
0X
1_
0_
#860000
0"
0A
0K
0E
0L
#870000
1"
1A
1K
1E
1L
1f
0N
1O
#880000
0"
0A
0K
0E
0L
#890000
1"
1A
1K
1E
1L
0f
1e
0^
1N
0]
#900000
0"
1*
0A
1?
1\
0K
0E
0L
#910000
1"
1A
1K
1E
1L
1f
0N
0O
0P
1W
1]
#920000
0"
0A
0K
0E
0L
#930000
1"
1A
1K
1E
1L
0f
0e
0d
1X
1^
1N
0W
0X
1_
#940000
0"
0A
0K
0E
0L
#950000
1"
1A
1K
1E
1L
1f
1`
0N
1O
1J
1@
1+
#960000
0"
0A
0K
0E
0L
#970000
1"
1A
1K
1E
1L
0f
1e
0^
1N
0]
0_
#980000
0"
0A
0K
0E
0L
#990000
1"
0,
1A
07
0M
1K
1E
0N
1b
0o
1L
0c
0`
zJ
z@
z+
