programador/simulation/qsim/programador.msim.vcd
$comment
	File created using the following command:
		vcd file programador.msim.vcd -direction
$end
$date
	Wed May  1 20:26:57 2024
$end
$version
	Questa Intel Starter FPGA Edition Version 2023.3
$end
$timescale
	1ps
$end

$scope module programador_vhd_vec_tst $end
$var wire 1 ! buisy $end
$var wire 1 " clk $end
$var wire 1 # data_in [7] $end
$var wire 1 $ data_in [6] $end
$var wire 1 % data_in [5] $end
$var wire 1 & data_in [4] $end
$var wire 1 ' data_in [3] $end
$var wire 1 ( data_in [2] $end
$var wire 1 ) data_in [1] $end
$var wire 1 * data_in [0] $end
$var wire 1 + err $end
$var wire 1 , r_w $end
$var wire 1 - reset $end
$var wire 1 . s_t $end
$var wire 1 / sca_o $end
$var wire 1 0 sda_o $end
$var wire 1 1 stop $end

$scope module i1 $end
$var wire 1 2 gnd $end
$var wire 1 3 vcc $end
$var wire 1 4 unknown $end
$var wire 1 5 devoe $end
$var wire 1 6 devclrn $end
$var wire 1 7 devpor $end
$var wire 1 8 ww_devoe $end
$var wire 1 9 ww_devclrn $end
$var wire 1 : ww_devpor $end
$var wire 1 ; ww_clk $end
$var wire 1 < ww_s_t $end
$var wire 1 = ww_r_w $end
$var wire 1 > ww_stop $end
$var wire 1 ? ww_reset $end
$var wire 1 @ ww_data_in [7] $end
$var wire 1 A ww_data_in [6] $end
$var wire 1 B ww_data_in [5] $end
$var wire 1 C ww_data_in [4] $end
$var wire 1 D ww_data_in [3] $end
$var wire 1 E ww_data_in [2] $end
$var wire 1 F ww_data_in [1] $end
$var wire 1 G ww_data_in [0] $end
$var wire 1 H ww_sca_o $end
$var wire 1 I ww_err $end
$var wire 1 J ww_buisy $end
$var wire 1 K \reset~inputclkctrl_INCLK_bus\ [3] $end
$var wire 1 L \reset~inputclkctrl_INCLK_bus\ [2] $end
$var wire 1 M \reset~inputclkctrl_INCLK_bus\ [1] $end
$var wire 1 N \reset~inputclkctrl_INCLK_bus\ [0] $end
$var wire 1 O \clk~inputclkctrl_INCLK_bus\ [3] $end
$var wire 1 P \clk~inputclkctrl_INCLK_bus\ [2] $end
$var wire 1 Q \clk~inputclkctrl_INCLK_bus\ [1] $end
$var wire 1 R \clk~inputclkctrl_INCLK_bus\ [0] $end
$var wire 1 S \sca_o~output_o\ $end
$var wire 1 T \sda_o~output_o\ $end
$var wire 1 U \err~output_o\ $end
$var wire 1 V \buisy~output_o\ $end
$var wire 1 W \clk~input_o\ $end
$var wire 1 X \clk~inputclkctrl_outclk\ $end
$var wire 1 Y \r_w~input_o\ $end
$var wire 1 Z \reset~input_o\ $end
$var wire 1 [ \reset~inputclkctrl_outclk\ $end
$var wire 1 \ \state.b_write~q\ $end
$var wire 1 ] \Selector7~0_combout\ $end
$var wire 1 ^ \s_t~input_o\ $end
$var wire 1 _ \stop~input_o\ $end
$var wire 1 ` \state~15_combout\ $end
$var wire 1 a \state.stop_1~q\ $end
$var wire 1 b \state.stop_2~q\ $end
$var wire 1 c \Selector0~0_combout\ $end
$var wire 1 d \state.idle~q\ $end
$var wire 1 e \state~16_combout\ $end
$var wire 1 f \state.start~q\ $end
$var wire 1 g \count[0]~0_combout\ $end
$var wire 1 h \Selector6~0_combout\ $end
$var wire 1 i \Selector5~0_combout\ $end
$var wire 1 j \state~14_combout\ $end
$var wire 1 k \state.ack_1~q\ $end
$var wire 1 l \state.ack_2~q\ $end
$var wire 1 m \sda_o~input_o\ $end
$var wire 1 n \Selector3~0_combout\ $end
$var wire 1 o \Selector3~1_combout\ $end
$var wire 1 p \state.idle_2~q\ $end
$var wire 1 q \Selector1~0_combout\ $end
$var wire 1 r \Selector1~1_combout\ $end
$var wire 1 s \state.b_trans~q\ $end
$var wire 1 t \WideOr5~0_combout\ $end
$var wire 1 u \data_in[6]~input_o\ $end
$var wire 1 v \data[6]~feeder_combout\ $end
$var wire 1 w \data_in[5]~input_o\ $end
$var wire 1 x \data_in[4]~input_o\ $end
$var wire 1 y \Mux0~0_combout\ $end
$var wire 1 z \data_in[7]~input_o\ $end
$var wire 1 { \Mux0~1_combout\ $end
$var wire 1 | \data_in[2]~input_o\ $end
$var wire 1 } \data[2]~feeder_combout\ $end
$var wire 1 ~ \data_in[3]~input_o\ $end
$var wire 1 !! \data_in[1]~input_o\ $end
$var wire 1 "! \data_in[0]~input_o\ $end
$var wire 1 #! \Mux0~2_combout\ $end
$var wire 1 $! \Mux0~3_combout\ $end
$var wire 1 %! \Selector8~3_combout\ $end
$var wire 1 &! \state.error~0_combout\ $end
$var wire 1 '! \state.error~q\ $end
$var wire 1 (! \WideOr6~0_combout\ $end
$var wire 1 )! \Selector8~2_combout\ $end
$var wire 1 *! \Selector8~4_combout\ $end
$var wire 1 +! count [3] $end
$var wire 1 ,! count [2] $end
$var wire 1 -! count [1] $end
$var wire 1 .! count [0] $end
$var wire 1 /! data [7] $end
$var wire 1 0! data [6] $end
$var wire 1 1! data [5] $end
$var wire 1 2! data [4] $end
$var wire 1 3! data [3] $end
$var wire 1 4! data [2] $end
$var wire 1 5! data [1] $end
$var wire 1 6! data [0] $end
$var wire 1 7! \ALT_INV_reset~inputclkctrl_outclk\ $end
$var wire 1 8! \ALT_INV_reset~input_o\ $end
$var wire 1 9! \ALT_INV_WideOr6~0_combout\ $end
$upscope $end
$upscope $end
$enddefinitions $end
#0
$dumpvars
0!
0"
0+
1,
1-
0.
z/
z0
01
02
13
x4
15
16
17
18
19
1:
0;
0<
1=
0>
1?
zH
0I
0J
zS
zT
0U
0V
0W
0X
1Y
1Z
1[
0\
1]
0^
0_
0`
0a
0b
0c
0d
0e
0f
0g
1h
1i
0j
0k
0l
zm
0n
0o
0p
0q
0r
0s
1t
1u
1v
0w
1x
0y
0z
0{
1|
1}
0~
0!!
1"!
0#!
0$!
0%!
0&!
0'!
1(!
1)!
1*!
07!
08!
09!
0#
1$
0%
1&
0'
1(
0)
1*
0@
1A
0B
1C
0D
1E
0F
1G
x+!
0,!
0-!
0.!
0/!
00!
01!
02!
03!
04!
05!
06!
1O
1P
1Q
0R
1K
1L
1M
1N
$end
#10000
1"
1;
1W
1R
1X
#20000
0"
0-
0;
0?
0Z
0W
18!
0N
0R
0X
0[
17!
#30000
1"
1.
1;
1<
1^
1W
1R
1c
1e
1X
1d
1f
10!
12!
14!
16!
1#!
1y
1g
1r
0e
0(!
19!
0)!
1{
1$!
1%!
0*!
1V
1J
1!
0T
00
0m
#40000
0"
0;
0W
0R
0X
#50000
1"
1;
1W
1R
1X
0f
1.!
1-!
1,!
1s
0t
1*!
0{
0$!
0g
0r
0%!
0*!
zT
0S
z0
0H
0/
0T
zm
00
0m
#60000
0"
0;
0W
0R
0X
#70000
1"
0.
1;
0<
0^
1W
1R
1X
1\
0s
1t
0]
1g
1q
1r
zS
zH
z/
#80000
0"
0;
0W
0R
0X
#90000
1"
1;
1W
1R
1X
0\
0.!
1s
0t
0y
0#!
1]
0g
0q
0r
1$!
1{
1%!
0S
1*!
0H
0/
zT
z0
zm
#100000
0"
0;
0W
0R
0X
#110000
1"
1;
1W
1R
1X
1\
0s
1t
1g
0h
1q
1r
zS
zH
z/
#120000
0"
0;
0W
0R
0X
#130000
1"
1;
1W
1R
1X
0\
1.!
0-!
1s
0t
0{
0$!
0g
1h
0q
0r
0%!
0*!
0S
0H
0/
0T
00
0m
#140000
0"
0;
0W
0R
0X
#150000
1"
1;
1W
1R
1X
1\
0s
1t
0]
1g
0h
1q
1r
zS
zH
z/
#160000
0"
0;
0W
0R
0X
#170000
1"
1;
1W
1R
1X
0\
0.!
1s
0t
1y
1#!
1]
0g
1h
0q
0r
1$!
1{
1%!
0S
1*!
0H
0/
zT
z0
zm
#180000
0"
0;
0W
0R
0X
#190000
1"
1;
1W
1R
1X
1\
0s
1t
1g
0i
1q
1r
zS
zH
z/
#200000
0"
0;
0W
0R
0X
#210000
1"
1;
1W
1R
1X
0\
1.!
1-!
0,!
1s
0t
0{
0$!
0g
1i
0q
0r
0%!
0*!
0S
0H
0/
0T
00
0m
#220000
0"
0;
0W
0R
0X
#230000
1"
1;
1W
1R
1X
1\
0s
1t
0]
1g
0i
1q
1r
zS
zH
z/
#240000
0"
0;
0W
0R
0X
#250000
1"
1;
1W
1R
1X
0\
0.!
1s
0t
0y
0#!
1]
0g
1i
0q
0r
1$!
1{
1%!
0S
1*!
0H
0/
zT
z0
zm
#260000
0"
0;
0W
0R
0X
#270000
1"
1;
1W
1R
1X
1\
0s
1t
1g
0h
0i
1q
1r
zS
zH
z/
#280000
0"
0;
0W
0R
0X
#290000
1"
1;
1W
1R
1X
0\
1.!
0-!
1s
0t
0{
0$!
0g
1h
1i
0q
0r
0%!
0*!
0S
0H
0/
0T
00
0m
#300000
0"
0;
0W
0R
0X
#310000
1"
1;
1W
1R
1X
1\
0s
1t
0]
1g
0h
0i
1q
1r
zS
zH
z/
#320000
0"
0;
0W
0R
0X
#330000
1"
1;
1W
1R
1X
0\
0.!
1s
0t
1y
1#!
1]
0g
1h
1i
0q
0r
1$!
1{
1%!
0S
1*!
0H
0/
zT
z0
zm
#340000
0"
0;
0W
0R
0X
#350000
1"
1;
1W
1R
1X
1\
0s
1t
1g
1j
zS
zH
z/
#360000
0"
1-
0;
1?
1Z
0W
08!
1N
0R
0g
0X
1[
07!
0\
0d
0c
1(!
0j
0*!
09!
1)!
1*!
0T
0V
00
0J
0!
zT
0m
z0
zm
#370000
1"
1;
1W
1R
1X
#380000
0"
0;
0W
0R
0X
#390000
1"
1;
1W
1R
1X
#400000
0"
0;
0W
0R
0X
#410000
1"
1;
1W
1R
1X
#420000
0"
0;
0W
0R
0X
#430000
1"
1;
1W
1R
1X
#440000
0"
0-
0;
0?
0Z
0W
18!
0N
0R
0X
0[
17!
#450000
1"
1;
1W
1R
1X
#460000
0"
0;
0W
0R
0X
#470000
1"
1;
1W
1R
1X
#480000
0"
0;
0W
0R
0X
#490000
1"
1;
1W
1R
1X
#500000
0"
0;
0W
0R
0X
#510000
1"
1;
1W
1R
1X
#520000
0"
0;
0W
0R
0X
#530000
1"
1;
1W
1R
1X
#540000
0"
0;
0W
0R
0X
#550000
1"
1;
1W
1R
1X
#560000
0"
0;
0W
0R
0X
#570000
1"
1;
1W
1R
1X
#580000
0"
0;
0W
0R
0X
#590000
1"
1;
1W
1R
1X
#600000
0"
0;
0W
0R
0X
#610000
1"
1;
1W
1R
1X
#620000
0"
0;
0W
0R
0X
#630000
1"
1;
1W
1R
1X
#640000
0"
0;
0W
0R
0X
#650000
1"
1;
1W
1R
1X
#660000
0"
0;
0W
0R
0X
#670000
1"
1;
1W
1R
1X
#680000
0"
0;
0W
0R
0X
#690000
1"
1;
1W
1R
1X
#700000
0"
0;
0W
0R
0X
#710000
1"
1;
1W
1R
1X
#720000
0"
0;
0W
0R
0X
#730000
1"
1;
1W
1R
1X
#740000
0"
0;
0W
0R
0X
#750000
1"
1;
1W
1R
1X
#760000
0"
0;
0W
0R
0X
#770000
1"
1;
1W
1R
1X
#780000
0"
0;
0W
0R
0X
#790000
1"
1;
1W
1R
1X
#800000
0"
0;
0W
0R
0X
#810000
1"
1;
1W
1R
1X
#820000
0"
0;
0W
0R
0X
#830000
1"
1;
1W
1R
1X
#840000
0"
0;
0W
0R
0X
#850000
1"
1;
1W
1R
1X
#860000
0"
0;
0W
0R
0X
#870000
1"
1;
1W
1R
1X
#880000
0"
0;
0W
0R
0X
#890000
1"
1;
1W
1R
1X
#900000
0"
0;
0W
0R
0X
#910000
1"
1;
1W
1R
1X
#920000
0"
1-
0;
1?
1Z
0W
08!
1N
0R
0X
1[
07!
#930000
1"
1;
1W
1R
1X
#940000
0"
0;
0W
0R
0X
#950000
1"
1;
1W
1R
1X
#960000
0"
0;
0W
0R
0X
#970000
1"
1;
1W
1R
1X
#980000
0"
0;
0W
0R
0X
#990000
1"
1;
1W
1R
1X
#1000000
0"
1)
0*
0;
0G
1F
1!!
0"!
0W
0R
0X
#1010000
1"
1;
1W
1R
1X
#1020000
0"
0;
0W
0R
0X
#1030000
1"
1;
1W
1R
1X
#1040000
0"
0;
0W
0R
0X
#1050000
1"
1;
1W
1R
1X
#1060000
0"
0;
0W
0R
0X
#1070000
1"
1;
1W
1R
1X
#1080000
0"
0;
0W
0R
0X
#1090000
1"
1;
1W
1R
1X
#1100000
0"
0;
0W
0R
0X
#1110000
1"
1;
1W
1R
1X
#1120000
0"
0-
1.
0;
0?
1<
1^
0Z
0W
18!
0N
0R
1c
1e
0X
0[
17!
#1130000
1"
1;
1W
1R
1X
1d
1f
15!
06!
0#!
1g
1r
0e
0(!
19!
0)!
0$!
0%!
0*!
1V
1J
1!
0T
00
0m
#1140000
0"
0;
0W
0R
0X
#1150000
1"
1;
1W
1R
1X
0f
1.!
1-!
1,!
1s
0t
1%!
0{
1$!
1#!
0g
0r
0$!
0%!
1*!
0*!
0S
0H
zT
0/
z0
0T
00
zm
0m
#1160000
0"
0;
0W
0R
0X
#1170000
1"
1;
1W
1R
1X
1\
0s
1t
0]
1g
1q
1r
zS
zH
z/
#1180000
0"
0;
0W
0R
0X
#1190000
1"
1;
1W
1R
1X
0\
0.!
1s
0t
0y
0#!
1]
0g
0q
0r
1$!
1{
1%!
0S
1*!
0H
0/
zT
z0
zm
#1200000
0"
0;
0W
0R
0X
#1210000
1"
1;
1W
1R
1X
1\
0s
1t
1g
0h
1q
1r
zS
zH
z/
#1220000
0"
0;
0W
0R
0X
#1230000
1"
1;
1W
1R
1X
0\
1.!
0-!
1s
0t
0{
0$!
1#!
0g
1h
0q
0r
1$!
0%!
0*!
0S
0H
0/
0T
00
0m
#1240000
0"
0;
0W
0R
0X
#1250000
1"
1;
1W
1R
1X
1\
0s
1t
0]
1g
0h
1q
1r
zS
zH
z/
#1260000
0"
0;
0W
0R
0X
#1270000
1"
1;
1W
1R
1X
0\
0.!
1s
0t
1y
0#!
1]
0g
1h
0q
0r
0$!
1{
1%!
0S
1*!
0H
0/
zT
z0
zm
#1280000
0"
0;
0W
0R
0X
#1290000
1"
1;
1W
1R
1X
1\
0s
1t
1g
0i
1q
1r
zS
zH
z/
#1300000
0"
0;
0W
0R
0X
#1310000
1"
1;
1W
1R
1X
0\
1.!
1-!
0,!
1s
0t
0%!
0{
1$!
1#!
0g
1i
0q
0r
0$!
1%!
0*!
1*!
0%!
0S
0*!
0H
0T
0/
00
zT
z0
0T
0m
00
zm
0m
#1320000
0"
0;
0W
0R
0X
#1330000
1"
1;
1W
1R
1X
1\
0s
1t
0]
1g
0i
1q
1r
zS
zH
z/
#1340000
0"
0;
0W
0R
0X
#1350000
1"
1;
1W
1R
1X
0\
0.!
1s
0t
0y
0#!
1]
0g
1i
0q
0r
1$!
1{
1%!
0S
1*!
0H
0/
zT
z0
zm
#1360000
0"
0.
0;
0<
0^
0W
0R
0X
#1370000
1"
1;
1W
1R
1X
1\
0s
1t
1g
0h
0i
1q
1r
zS
zH
z/
#1380000
0"
0;
0W
0R
0X
#1390000
1"
1;
1W
1R
1X
0\
1.!
0-!
1s
0t
0{
0$!
1#!
0g
1h
1i
0q
0r
1$!
0%!
0*!
1%!
0S
1*!
0H
0/
0T
00
zT
z0
0m
zm
#1400000
0"
0;
0W
0R
0X
#1410000
1"
1;
1W
1R
1X
1\
0s
1t
0]
1g
0h
0i
1q
1r
zS
zH
z/
#1420000
0"
0;
0W
0R
0X
#1430000
1"
1;
1W
1R
1X
0\
0.!
1s
0t
1y
0#!
1]
0g
1h
1i
0q
0r
0$!
1{
0%!
0S
0*!
0H
0/
0T
00
0m
#1440000
0"
0;
0W
0R
0X
#1450000
1"
1;
1W
1R
1X
1\
0s
1t
1g
1j
zS
zH
z/
#1460000
0"
0;
0W
0R
0X
#1470000
1"
1;
1W
1R
1X
0\
1.!
1-!
1,!
1k
0t
1%!
0{
1$!
1#!
0g
0j
0$!
0%!
0S
0H
0/
#1480000
0"
0;
0W
0R
0X
#1490000
1"
1;
1W
1R
1X
0k
1l
1o
1t
zS
zH
z/
#1500000
0"
0;
0W
0R
0X
#1510000
1"
1;
1W
1R
1X
0l
1p
1r
1(!
0o
09!
1)!
1*!
0V
0J
0!
zT
z0
zm
#1520000
0"
0;
0W
0R
0X
#1530000
1"
1;
1W
1R
1X
0p
1s
0t
0r
0(!
19!
0)!
0*!
0S
1V
0H
1J
0/
1!
0T
00
0m
#1540000
0"
0;
0W
0R
0X
#1550000
1"
1;
1W
1R
1X
1\
0s
1t
0]
1g
1q
1r
zS
zH
z/
#1560000
0"
0;
0W
0R
0X
#1570000
1"
1;
1W
1R
1X
0\
0.!
1s
0t
0y
0#!
1]
0g
0q
0r
1$!
1{
1%!
0S
1*!
0H
0/
zT
z0
zm
#1580000
0"
0;
0W
0R
0X
#1590000
1"
1;
1W
1R
1X
1\
0s
1t
1g
0h
1q
1r
zS
zH
z/
#1600000
0"
0;
0W
0R
0X
#1610000
1"
1;
1W
1R
1X
0\
1.!
0-!
1s
0t
0{
0$!
1#!
0g
1h
0q
0r
1$!
0%!
0*!
0S
0H
0/
0T
00
0m
#1620000
0"
0;
0W
0R
0X
#1630000
1"
1;
1W
1R
1X
1\
0s
1t
0]
1g
0h
1q
1r
zS
zH
z/
#1640000
0"
0;
0W
0R
0X
#1650000
1"
1;
1W
1R
1X
0\
0.!
1s
0t
1y
0#!
1]
0g
1h
0q
0r
0$!
1{
1%!
0S
1*!
0H
0/
zT
z0
zm
#1660000
0"
0;
0W
0R
0X
#1670000
1"
1;
1W
1R
1X
1\
0s
1t
1g
0i
1q
1r
zS
zH
z/
#1680000
0"
0;
0W
0R
0X
#1690000
1"
1;
1W
1R
1X
0\
1.!
1-!
0,!
1s
0t
0%!
0{
1$!
1#!
0g
1i
0q
0r
0$!
1%!
0*!
1*!
0%!
0S
0*!
0H
0T
0/
00
zT
z0
0T
0m
00
zm
0m
#1700000
0"
0;
0W
0R
0X
#1710000
1"
1;
1W
1R
1X
1\
0s
1t
0]
1g
0i
1q
1r
zS
zH
z/
#1720000
0"
0;
0W
0R
0X
#1730000
1"
1;
1W
1R
1X
0\
0.!
1s
0t
0y
0#!
1]
0g
1i
0q
0r
1$!
1{
1%!
0S
1*!
0H
0/
zT
z0
zm
#1740000
0"
0;
0W
0R
0X
#1750000
1"
1;
1W
1R
1X
1\
0s
1t
1g
0h
0i
1q
1r
zS
zH
z/
#1760000
0"
0;
0W
0R
0X
#1770000
1"
1;
1W
1R
1X
0\
1.!
0-!
1s
0t
0{
0$!
1#!
0g
1h
1i
0q
0r
1$!
0%!
0*!
1%!
0S
1*!
0H
0/
0T
00
zT
z0
0m
zm
#1780000
0"
0;
0W
0R
0X
#1790000
1"
1;
1W
1R
1X
1\
0s
1t
0]
1g
0h
0i
1q
1r
zS
zH
z/
#1800000
0"
0;
0W
0R
0X
#1810000
1"
1;
1W
1R
1X
0\
0.!
1s
0t
1y
0#!
1]
0g
1h
1i
0q
0r
0$!
1{
0%!
0S
0*!
0H
0/
0T
00
0m
#1820000
0"
0;
0W
0R
0X
#1830000
1"
1;
1W
1R
1X
1\
0s
1t
1g
1j
zS
zH
z/
#1840000
0"
0;
0W
0R
0X
#1850000
1"
1;
1W
1R
1X
0\
1.!
1-!
1,!
1k
0t
1%!
0{
1$!
1#!
0g
0j
0$!
0%!
0S
0H
0/
#1860000
0"
0;
0W
0R
0X
#1870000
1"
1;
1W
1R
1X
0k
1l
1o
1t
zS
zH
z/
#1880000
0"
0;
0W
0R
0X
#1890000
1"
1;
1W
1R
1X
0l
1p
1r
1(!
0o
09!
1)!
1*!
0V
0J
0!
zT
z0
zm
#1900000
0"
0;
0W
0R
0X
#1910000
1"
1;
1W
1R
1X
0p
1s
0t
0r
0(!
19!
0)!
0*!
0S
1V
0H
1J
0/
1!
0T
00
0m
#1920000
0"
0;
0W
0R
0X
#1930000
1"
1;
1W
1R
1X
1\
0s
1t
0]
1g
1q
1r
zS
zH
z/
#1940000
0"
0;
0W
0R
0X
#1950000
1"
1;
1W
1R
1X
0\
0.!
1s
0t
0y
0#!
1]
0g
0q
0r
1$!
1{
1%!
0S
1*!
0H
0/
zT
z0
zm
#1960000
0"
0;
0W
0R
0X
#1970000
1"
1;
1W
1R
1X
1\
0s
1t
1g
0h
1q
1r
zS
zH
z/
#1980000
0"
0;
0W
0R
0X
#1990000
1"
1;
1W
1R
1X
0\
1.!
0-!
1s
0t
0{
0$!
1#!
0g
1h
0q
0r
1$!
0%!
0*!
0S
0H
0/
0T
00
0m
#2000000
0"
1*
0;
1G
1"!
0W
0R
0X
#2010000
1"
1;
1W
1R
1X
1\
0s
16!
1t
0]
1g
0h
1q
1r
zS
zH
z/
#2020000
0"
0;
0W
0R
0X
#2030000
1"
1;
1W
1R
1X
0\
0.!
1s
0t
1y
1]
0g
1h
0q
0r
1{
1%!
0S
1*!
0H
0/
zT
z0
zm
#2040000
0"
0;
0W
0R
0X
#2050000
1"
1;
1W
1R
1X
1\
0s
1t
1g
0i
1q
1r
zS
zH
z/
#2060000
0"
0;
0W
0R
0X
#2070000
1"
1;
1W
1R
1X
0\
1.!
1-!
0,!
1s
0t
0{
0$!
0g
1i
0q
0r
0%!
0*!
0S
0H
0/
0T
00
0m
#2080000
0"
1-
0;
1?
1Z
0W
08!
1N
0R
0X
1[
07!
0d
0s
1t
0c
1(!
09!
1)!
1*!
zS
0V
zH
0J
z/
0!
zT
z0
zm
#2090000
1"
1;
1W
1R
1X
#2100000
0"
0;
0W
0R
0X
#2110000
1"
1;
1W
1R
1X
#2120000
0"
0;
0W
0R
0X
#2130000
1"
1;
1W
1R
1X
#2140000
0"
0;
0W
0R
0X
#2150000
1"
1;
1W
1R
1X
#2160000
0"
0;
0W
0R
0X
#2170000
1"
1;
1W
1R
1X
#2180000
0"
0;
0W
0R
0X
#2190000
1"
1;
1W
1R
1X
#2200000
0"
0;
0W
0R
0X
#2210000
1"
1;
1W
1R
1X
#2220000
0"
0;
0W
0R
0X
#2230000
1"
1;
1W
1R
1X
#2240000
0"
0-
1.
0;
0?
1<
1^
0Z
0W
18!
0N
0R
1c
1e
0X
0[
17!
#2250000
1"
1;
1W
1R
1X
1d
1f
1g
1r
0e
0(!
19!
0)!
0*!
1V
1J
1!
0T
00
0m
#2260000
0"
0;
0W
0R
0X
#2270000
1"
1;
1W
1R
1X
0f
1,!
1s
0t
0g
0r
0S
0H
0/
#2280000
0"
0;
0W
0R
0X
#2290000
1"
1;
1W
1R
1X
1\
0s
1t
0]
1g
1q
1r
zS
zH
z/
#2300000
0"
0;
0W
0R
0X
#2310000
1"
1;
1W
1R
1X
0\
0.!
1s
0t
0y
0#!
1]
0g
0q
0r
1$!
1{
1%!
0S
1*!
0H
0/
zT
z0
zm
#2320000
0"
0;
0W
0R
0X
#2330000
1"
1;
1W
1R
1X
1\
0s
1t
1g
0h
1q
1r
zS
zH
z/
#2340000
0"
0;
0W
0R
0X
#2350000
1"
1;
1W
1R
1X
0\
1.!
0-!
1s
0t
0{
0$!
1#!
0g
1h
0q
0r
1$!
0%!
0*!
0S
0H
0/
0T
00
0m
#2360000
0"
0;
0W
0R
0X
#2370000
1"
1;
1W
1R
1X
1\
0s
1t
0]
1g
0h
1q
1r
zS
zH
z/
#2380000
0"
0;
0W
0R
0X
#2390000
1"
1;
1W
1R
1X
0\
0.!
1s
0t
1y
1]
0g
1h
0q
0r
1{
1%!
0S
1*!
0H
0/
zT
z0
zm
#2400000
0"
0.
0;
0<
0^
0W
0R
0X
#2410000
1"
1;
1W
1R
1X
1\
0s
1t
1g
0i
1q
1r
zS
zH
z/
#2420000
0"
0;
0W
0R
0X
#2430000
1"
1;
1W
1R
1X
0\
1.!
1-!
0,!
1s
0t
0{
0$!
0g
1i
0q
0r
0%!
0*!
0S
0H
0/
0T
00
0m
#2440000
0"
0;
0W
0R
0X
#2450000
1"
1;
1W
1R
1X
1\
0s
1t
0]
1g
0i
1q
1r
zS
zH
z/
#2460000
0"
0;
0W
0R
0X
#2470000
1"
1;
1W
1R
1X
0\
0.!
1s
0t
0y
0#!
1]
0g
1i
0q
0r
1$!
1{
1%!
0S
1*!
0H
0/
zT
z0
zm
#2480000
0"
0;
0W
0R
0X
#2490000
1"
1;
1W
1R
1X
1\
0s
1t
1g
0h
0i
1q
1r
zS
zH
z/
#2500000
0"
0;
0W
0R
0X
#2510000
1"
1;
1W
1R
1X
0\
1.!
0-!
1s
0t
0{
0$!
1#!
0g
1h
1i
0q
0r
1$!
0%!
0*!
1%!
0S
1*!
0H
0/
0T
00
zT
z0
0m
zm
#2520000
0"
0;
0W
0R
0X
#2530000
1"
1;
1W
1R
1X
1\
0s
1t
0]
1g
0h
0i
1q
1r
zS
zH
z/
#2540000
0"
0;
0W
0R
0X
#2550000
1"
1;
1W
1R
1X
0\
0.!
1s
0t
1y
1]
0g
1h
1i
0q
0r
1{
0S
0H
0/
#2560000
0"
1-
0;
1?
1Z
0W
08!
1N
0R
0X
1[
07!
0d
0s
1t
0*!
0c
1(!
09!
1)!
1*!
0T
zS
0V
00
zH
0J
z/
0!
zT
0m
z0
zm
#2570000
1"
1;
1W
1R
1X
#2580000
0"
0;
0W
0R
0X
#2590000
1"
1;
1W
1R
1X
#2600000
0"
0;
0W
0R
0X
#2610000
1"
1;
1W
1R
1X
#2620000
0"
0;
0W
0R
0X
#2630000
1"
1;
1W
1R
1X
#2640000
0"
0-
0;
0?
0Z
0W
18!
0N
0R
0X
0[
17!
#2650000
1"
1;
1W
1R
1X
#2660000
0"
0;
0W
0R
0X
#2670000
1"
1;
1W
1R
1X
#2680000
0"
0;
0W
0R
0X
#2690000
1"
1;
1W
1R
1X
#2700000
0"
0;
0W
0R
0X
#2710000
1"
1;
1W
1R
1X
#2720000
0"
0;
0W
0R
0X
#2730000
1"
1;
1W
1R
1X
#2740000
0"
0;
0W
0R
0X
#2750000
1"
1;
1W
1R
1X
#2760000
0"
0;
0W
0R
0X
#2770000
1"
1;
1W
1R
1X
#2780000
0"
0;
0W
0R
0X
#2790000
1"
1;
1W
1R
1X
#2800000
0"
0;
0W
0R
0X
#2810000
1"
1;
1W
1R
1X
#2820000
0"
0;
0W
0R
0X
#2830000
1"
1;
1W
1R
1X
#2840000
0"
0;
0W
0R
0X
#2850000
1"
1;
1W
1R
1X
#2860000
0"
0;
0W
0R
0X
#2870000
1"
1;
1W
1R
1X
#2880000
0"
0;
0W
0R
0X
#2890000
1"
1;
1W
1R
1X
#2900000
0"
0;
0W
0R
0X
#2910000
1"
1;
1W
1R
1X
#2920000
0"
0;
0W
0R
0X
#2930000
1"
1;
1W
1R
1X
#2940000
0"
0;
0W
0R
0X
#2950000
1"
1;
1W
1R
1X
#2960000
0"
0;
0W
0R
0X
#2970000
1"
1;
1W
1R
1X
#2980000
0"
0;
0W
0R
0X
#2990000
1"
1;
1W
1R
1X
