Pruebas/Ram_CIAA_FPGA/simulation/qsim/Pruebas_ram.msim.vcd
$comment
	File created using the following command:
		vcd file Pruebas_ram.msim.vcd -direction
$end
$date
	Sun Sep 15 12:21:54 2024
$end
$version
	ModelSim Version 2020.1
$end
$timescale
	1ps
$end

$scope module escritura_lectura_vlg_vec_tst $end
$var reg 1 ! btn $end
$var reg 1 " clk $end
$var reg 8 # data_i [7:0] $end
$var reg 1 $ reset $end
$var wire 1 % data_o [7] $end
$var wire 1 & data_o [6] $end
$var wire 1 ' data_o [5] $end
$var wire 1 ( data_o [4] $end
$var wire 1 ) data_o [3] $end
$var wire 1 * data_o [2] $end
$var wire 1 + data_o [1] $end
$var wire 1 , data_o [0] $end
$var wire 1 - dir_o [8] $end
$var wire 1 . dir_o [7] $end
$var wire 1 / dir_o [6] $end
$var wire 1 0 dir_o [5] $end
$var wire 1 1 dir_o [4] $end
$var wire 1 2 dir_o [3] $end
$var wire 1 3 dir_o [2] $end
$var wire 1 4 dir_o [1] $end
$var wire 1 5 dir_o [0] $end
$var wire 1 6 led_salida [7] $end
$var wire 1 7 led_salida [6] $end
$var wire 1 8 led_salida [5] $end
$var wire 1 9 led_salida [4] $end
$var wire 1 : led_salida [3] $end
$var wire 1 ; led_salida [2] $end
$var wire 1 < led_salida [1] $end
$var wire 1 = led_salida [0] $end
$var wire 1 > write_en $end

$scope module i1 $end
$var wire 1 ? gnd $end
$var wire 1 @ vcc $end
$var wire 1 A unknown $end
$var tri1 1 B devclrn $end
$var tri1 1 C devpor $end
$var tri1 1 D devoe $end
$var wire 1 E write_en~output_o $end
$var wire 1 F dir_o[0]~output_o $end
$var wire 1 G dir_o[1]~output_o $end
$var wire 1 H dir_o[2]~output_o $end
$var wire 1 I dir_o[3]~output_o $end
$var wire 1 J dir_o[4]~output_o $end
$var wire 1 K dir_o[5]~output_o $end
$var wire 1 L dir_o[6]~output_o $end
$var wire 1 M dir_o[7]~output_o $end
$var wire 1 N dir_o[8]~output_o $end
$var wire 1 O data_o[0]~output_o $end
$var wire 1 P data_o[1]~output_o $end
$var wire 1 Q data_o[2]~output_o $end
$var wire 1 R data_o[3]~output_o $end
$var wire 1 S data_o[4]~output_o $end
$var wire 1 T data_o[5]~output_o $end
$var wire 1 U data_o[6]~output_o $end
$var wire 1 V data_o[7]~output_o $end
$var wire 1 W led_salida[0]~output_o $end
$var wire 1 X led_salida[1]~output_o $end
$var wire 1 Y led_salida[2]~output_o $end
$var wire 1 Z led_salida[3]~output_o $end
$var wire 1 [ led_salida[4]~output_o $end
$var wire 1 \ led_salida[5]~output_o $end
$var wire 1 ] led_salida[6]~output_o $end
$var wire 1 ^ led_salida[7]~output_o $end
$var wire 1 _ clk~input_o $end
$var wire 1 ` clk~inputclkctrl_outclk $end
$var wire 1 a dir_interna[0]~9_combout $end
$var wire 1 b reset~input_o $end
$var wire 1 c reset~inputclkctrl_outclk $end
$var wire 1 d btn~input_o $end
$var wire 1 e LessThan0~0_combout $end
$var wire 1 f LessThan0~1_combout $end
$var wire 1 g Selector0~0_combout $end
$var wire 1 h Selector0~1_combout $end
$var wire 1 i state.lectura~q $end
$var wire 1 j dir_interna[0]~28_combout $end
$var wire 1 k state.cambio_dir~q $end
$var wire 1 l dir_interna[0]~11_combout $end
$var wire 1 m dir_interna[0]~10 $end
$var wire 1 n dir_interna[1]~12_combout $end
$var wire 1 o dir_interna[1]~13 $end
$var wire 1 p dir_interna[2]~14_combout $end
$var wire 1 q dir_interna[2]~15 $end
$var wire 1 r dir_interna[3]~16_combout $end
$var wire 1 s dir_interna[3]~17 $end
$var wire 1 t dir_interna[4]~18_combout $end
$var wire 1 u dir_interna[4]~19 $end
$var wire 1 v dir_interna[5]~20_combout $end
$var wire 1 w dir_interna[5]~21 $end
$var wire 1 x dir_interna[6]~22_combout $end
$var wire 1 y dir_interna[6]~23 $end
$var wire 1 z dir_interna[7]~24_combout $end
$var wire 1 { dir_interna[7]~25 $end
$var wire 1 | dir_interna[8]~26_combout $end
$var wire 1 } state~11_combout $end
$var wire 1 ~ state.dir_y_enable~q $end
$var wire 1 !! state.escritura~0_combout $end
$var wire 1 "! state.escritura~q $end
$var wire 1 #! write_en~0_combout $end
$var wire 1 $! contador_dato[0]~7_combout $end
$var wire 1 %! data_o~0_combout $end
$var wire 1 &! contador_dato[1]~8_combout $end
$var wire 1 '! data_o~1_combout $end
$var wire 1 (! contador_dato[1]~9 $end
$var wire 1 )! contador_dato[2]~10_combout $end
$var wire 1 *! data_o~2_combout $end
$var wire 1 +! contador_dato[2]~11 $end
$var wire 1 ,! contador_dato[3]~12_combout $end
$var wire 1 -! data_o~3_combout $end
$var wire 1 .! contador_dato[3]~13 $end
$var wire 1 /! contador_dato[4]~14_combout $end
$var wire 1 0! data_o~4_combout $end
$var wire 1 1! contador_dato[4]~15 $end
$var wire 1 2! contador_dato[5]~16_combout $end
$var wire 1 3! data_o~5_combout $end
$var wire 1 4! contador_dato[5]~17 $end
$var wire 1 5! contador_dato[6]~18_combout $end
$var wire 1 6! data_o~6_combout $end
$var wire 1 7! contador_dato[6]~19 $end
$var wire 1 8! contador_dato[7]~20_combout $end
$var wire 1 9! data_o~7_combout $end
$var wire 1 :! data_i[0]~input_o $end
$var wire 1 ;! registro_entrada[0]~0_combout $end
$var wire 1 <! led_salida~0_combout $end
$var wire 1 =! data_i[1]~input_o $end
$var wire 1 >! led_salida~1_combout $end
$var wire 1 ?! data_i[2]~input_o $end
$var wire 1 @! led_salida~2_combout $end
$var wire 1 A! data_i[3]~input_o $end
$var wire 1 B! led_salida~3_combout $end
$var wire 1 C! data_i[4]~input_o $end
$var wire 1 D! led_salida~4_combout $end
$var wire 1 E! data_i[5]~input_o $end
$var wire 1 F! led_salida~5_combout $end
$var wire 1 G! data_i[6]~input_o $end
$var wire 1 H! led_salida~6_combout $end
$var wire 1 I! data_i[7]~input_o $end
$var wire 1 J! led_salida~7_combout $end
$var wire 1 K! dir_interna [8] $end
$var wire 1 L! dir_interna [7] $end
$var wire 1 M! dir_interna [6] $end
$var wire 1 N! dir_interna [5] $end
$var wire 1 O! dir_interna [4] $end
$var wire 1 P! dir_interna [3] $end
$var wire 1 Q! dir_interna [2] $end
$var wire 1 R! dir_interna [1] $end
$var wire 1 S! dir_interna [0] $end
$var wire 1 T! contador_dato [7] $end
$var wire 1 U! contador_dato [6] $end
$var wire 1 V! contador_dato [5] $end
$var wire 1 W! contador_dato [4] $end
$var wire 1 X! contador_dato [3] $end
$var wire 1 Y! contador_dato [2] $end
$var wire 1 Z! contador_dato [1] $end
$var wire 1 [! contador_dato [0] $end
$var wire 1 \! registro_entrada [7] $end
$var wire 1 ]! registro_entrada [6] $end
$var wire 1 ^! registro_entrada [5] $end
$var wire 1 _! registro_entrada [4] $end
$var wire 1 `! registro_entrada [3] $end
$var wire 1 a! registro_entrada [2] $end
$var wire 1 b! registro_entrada [1] $end
$var wire 1 c! registro_entrada [0] $end
$upscope $end
$upscope $end
$enddefinitions $end
#0
$dumpvars
1!
0"
b0 #
1$
0,
0+
0*
0)
0(
0'
0&
0%
05
04
03
02
01
00
0/
0.
0-
0=
0<
0;
0:
09
08
07
06
1>
0?
1@
xA
1B
1C
1D
1E
0F
0G
0H
0I
0J
0K
0L
0M
0N
0O
0P
0Q
0R
0S
0T
0U
0V
0W
0X
0Y
0Z
0[
0\
0]
0^
0_
0`
1a
1b
1c
1d
1e
1f
0g
0h
0i
0j
0k
1l
0m
0n
1o
0p
0q
0r
1s
0t
0u
0v
1w
0x
0y
0z
1{
0|
1}
0~
1!!
0"!
1#!
1$!
0%!
0&!
0'!
0(!
0)!
0*!
1+!
0,!
0-!
0.!
0/!
00!
11!
02!
03!
04!
05!
06!
17!
08!
09!
0:!
0;!
0<!
0=!
0>!
0?!
0@!
0A!
0B!
0C!
0D!
0E!
0F!
0G!
0H!
0I!
0J!
0S!
0R!
0Q!
0P!
0O!
0N!
0M!
0L!
0K!
0[!
0Z!
0Y!
0X!
0W!
0V!
0U!
0T!
0c!
0b!
0a!
0`!
0_!
0^!
0]!
0\!
$end
#5000
1"
1_
1`
1[!
1"!
1~
1S!
1F
1m
15
1&!
1%!
0}
0!!
0a
1O
0l
1,
1n
#10000
0"
0_
0`
#15000
1"
1_
1`
0"!
0~
1}
0$!
1!!
1l
#20000
0"
0_
0`
#25000
1"
1_
1`
1Z!
0[!
1"!
1~
1R!
0S!
0F
1G
0o
0m
14
05
1'!
0%!
0}
0!!
0n
1a
0O
1P
1o
0l
1+
0,
1p
1n
0p
#30000
0$
0"
0b
0_
0c
0`
0~
0"!
0Z!
0R!
0G
04
1$!
1!!
1}
0'!
0&!
0n
0P
1l
0+
#35000
1"
1_
1`
#40000
0"
0_
0`
#45000
1"
1_
1`
#50000
1$
0"
1b
0_
1c
0`
#55000
1"
1_
1`
1[!
1"!
1~
1S!
1F
1m
15
1&!
1%!
0}
0!!
0a
1O
0l
1,
1n
#60000
0"
0_
0`
#65000
1"
1_
1`
0"!
0~
1}
0$!
1!!
1l
#70000
0"
0_
0`
#75000
1"
1_
1`
1Z!
0[!
1"!
1~
1R!
0S!
0F
1G
0o
0m
14
05
1'!
0%!
0}
0!!
0n
1a
0O
1P
1o
0l
1+
0,
1p
1n
0p
#80000
0"
0_
0`
#85000
1"
1_
1`
0"!
0~
1}
1$!
1!!
1l
#90000
0"
0_
0`
#95000
1"
1_
1`
1[!
1"!
1~
1S!
1F
1(!
1m
15
0&!
1%!
0}
0!!
0a
1O
0o
0l
1,
1)!
0n
1p
#100000
0"
0_
0`
#105000
1"
1_
1`
0"!
0~
1}
0$!
1!!
1l
#110000
0"
0_
0`
#115000
1"
1_
1`
1Y!
0Z!
0[!
1"!
1~
1Q!
0R!
0S!
0F
0G
1H
0+!
0(!
1q
1o
0m
13
04
05
1*!
0)!
0'!
0%!
0}
0!!
0p
1n
1a
0O
0P
1Q
1+!
0q
0l
1*
0+
0,
1,!
1)!
1r
1p
0n
0,!
0r
#120000
0"
0_
0`
#125000
1"
1_
1`
0"!
0~
1}
1$!
1!!
1l
#130000
0"
0_
0`
#135000
1"
1_
1`
1[!
1"!
1~
1S!
1F
1m
15
1&!
1%!
0}
0!!
0a
1O
0l
1,
1n
#140000
0"
0_
0`
#145000
1"
1_
1`
0"!
0~
1}
0$!
1!!
1l
#150000
0"
0_
0`
#155000
1"
1_
1`
1Z!
0[!
1"!
1~
1R!
0S!
0F
1G
0o
0m
14
05
1'!
0%!
0}
0!!
0n
1a
0O
1P
1q
1o
0l
1+
0,
0p
1n
0q
1r
1p
0r
#160000
0"
0_
0`
#165000
1"
1_
1`
0"!
0~
1}
1$!
1!!
1l
#170000
0"
0_
0`
#175000
1"
1_
1`
1[!
1"!
1~
1S!
1F
1(!
1m
15
0&!
1%!
0}
0!!
0a
1O
0+!
0o
0l
1,
0)!
0n
1q
1,!
0p
1r
#180000
0"
0_
0`
#185000
1"
1_
1`
0"!
0~
1}
0$!
1!!
1l
#190000
0"
0_
0`
#195000
1"
1_
1`
1X!
0Y!
0Z!
0[!
1"!
1~
1P!
0Q!
0R!
0S!
0F
0G
0H
1I
1.!
1+!
0(!
0s
0q
1o
0m
12
03
04
05
1-!
0,!
0*!
1)!
0'!
0%!
0}
0!!
0r
1p
1n
1a
0O
0P
0Q
1R
0.!
1s
0l
1)
0*
0+
0,
1/!
1,!
0)!
1t
1r
0p
0n
0/!
0t
#200000
0"
0_
0`
#205000
1"
1_
1`
0"!
0~
1}
1$!
1!!
1l
#210000
0"
0_
0`
#215000
1"
1_
1`
1[!
1"!
1~
1S!
1F
1m
15
1&!
1%!
0}
0!!
0a
1O
0l
1,
1n
#220000
0"
0_
0`
#225000
1"
1_
1`
0"!
0~
1}
0$!
1!!
1l
#230000
0"
0_
0`
#235000
1"
1_
1`
1Z!
0[!
1"!
1~
1R!
0S!
0F
1G
0o
0m
14
05
1'!
0%!
0}
0!!
0n
1a
0O
1P
1o
0l
1+
0,
1p
1n
0p
#240000
0"
0_
0`
#245000
1"
1_
1`
0"!
0~
1}
1$!
1!!
1l
#250000
0"
0_
0`
#255000
1"
1_
1`
1[!
1"!
1~
1S!
1F
1(!
1m
15
0&!
1%!
0}
0!!
0a
1O
0o
0l
1,
1)!
0n
1p
#260000
0"
0_
0`
#265000
1"
1_
1`
0"!
0~
1}
0$!
1!!
1l
#270000
0"
0_
0`
#275000
1"
1_
1`
1Y!
0Z!
0[!
1"!
1~
1Q!
0R!
0S!
0F
0G
1H
0+!
0(!
1q
1o
0m
13
04
05
1*!
0)!
0'!
0%!
0}
0!!
0p
1n
1a
0O
0P
1Q
1.!
1+!
0s
0q
0l
1*
0+
0,
0,!
1)!
0r
1p
0n
0.!
1s
1/!
1,!
1t
1r
0/!
0t
#280000
0"
0_
0`
#285000
1"
1_
1`
0"!
0~
1}
1$!
1!!
1l
#290000
0"
0_
0`
#295000
1"
1_
1`
1[!
1"!
1~
1S!
1F
1m
15
1&!
1%!
0}
0!!
0a
1O
0l
1,
1n
#300000
0"
0_
0`
#305000
1"
1_
1`
0"!
0~
1}
0$!
1!!
1l
#310000
0"
0_
0`
#315000
1"
1_
1`
1Z!
0[!
1"!
1~
1R!
0S!
0F
1G
0o
0m
14
05
1'!
0%!
0}
0!!
0n
1a
0O
1P
1q
1o
0l
1+
0,
0p
1n
0s
0q
0r
1p
1s
1t
1r
0t
#320000
0"
0_
0`
#325000
1"
1_
1`
0"!
0~
1}
1$!
1!!
1l
#330000
0"
0_
0`
#335000
1"
1_
1`
1[!
1"!
1~
1S!
1F
1(!
0e
1m
15
0&!
1%!
0}
0!!
0a
1O
0+!
0o
0l
1,
0)!
0n
1.!
1q
0,!
0p
0s
1/!
0r
1t
#340000
0"
0_
0`
#345000
1"
1_
1`
0"!
0~
1}
0$!
1!!
1l
#350000
0"
0_
0`
#355000
1"
1_
1`
1W!
0X!
0Y!
0Z!
0[!
1"!
1~
1O!
0P!
0Q!
0R!
0S!
0F
0G
0H
0I
1J
01!
0.!
1+!
0(!
1u
1s
1e
0q
1o
0m
11
02
03
04
05
10!
0/!
0-!
1,!
0*!
1)!
0'!
0%!
0}
0!!
0t
1r
1p
1n
1a
0O
0P
0Q
0R
1S
11!
0u
0l
1(
0)
0*
0+
0,
12!
1/!
0,!
0)!
1v
1t
0r
0p
0n
02!
0v
#360000
0"
0_
0`
#365000
1"
1_
1`
0"!
0~
1}
1$!
1!!
1l
#370000
0"
0_
0`
#375000
1"
1_
1`
1[!
1"!
1~
1S!
1F
1m
15
1&!
1%!
0}
0!!
0a
1O
0l
1,
1n
#380000
0"
0_
0`
#385000
1"
1_
1`
0"!
0~
1}
0$!
1!!
1l
#390000
0"
0_
0`
#395000
1"
1_
1`
1Z!
0[!
1"!
1~
1R!
0S!
0F
1G
0o
0m
14
05
1'!
0%!
0}
0!!
0n
1a
0O
1P
1o
0l
1+
0,
1p
1n
0p
#400000
0"
0_
0`
#405000
1"
1_
1`
0"!
0~
1}
1$!
1!!
1l
#410000
0"
0_
0`
#415000
1"
1_
1`
1[!
1"!
1~
1S!
1F
1(!
1m
15
0&!
1%!
0}
0!!
0a
1O
0o
0l
1,
1)!
0n
1p
#420000
0"
0_
0`
#425000
1"
1_
1`
0"!
0~
1}
0$!
1!!
1l
#430000
0"
0_
0`
#435000
1"
1_
1`
1Y!
0Z!
0[!
1"!
1~
1Q!
0R!
0S!
0F
0G
1H
0+!
0(!
1q
1o
0m
13
04
05
1*!
0)!
0'!
0%!
0}
0!!
0p
1n
1a
0O
0P
1Q
1+!
0q
0l
1*
0+
0,
1,!
1)!
1r
1p
0n
0,!
0r
#440000
0"
0_
0`
#445000
1"
1_
1`
0"!
0~
1}
1$!
1!!
1l
#450000
0"
0_
0`
#455000
1"
1_
1`
1[!
1"!
1~
1S!
1F
1m
15
1&!
1%!
0}
0!!
0a
1O
0l
1,
1n
#460000
0"
0_
0`
#465000
1"
1_
1`
0"!
0~
1}
0$!
1!!
1l
#470000
0"
0_
0`
#475000
1"
1_
1`
1Z!
0[!
1"!
1~
1R!
0S!
0F
1G
0o
0m
14
05
1'!
0%!
0}
0!!
0n
1a
0O
1P
1q
1o
0l
1+
0,
0p
1n
0q
1r
1p
0r
#480000
0"
0_
0`
#485000
1"
1_
1`
0"!
0~
1}
1$!
1!!
1l
#490000
0"
0_
0`
#495000
1"
1_
1`
1[!
1"!
1~
1S!
1F
1(!
1m
15
0&!
1%!
0}
0!!
0a
1O
0+!
0o
0l
1,
0)!
0n
1q
1,!
0p
1r
#500000
0"
0_
0`
#505000
1"
1_
1`
0"!
0~
1}
0$!
1!!
1l
#510000
0"
0_
0`
#515000
1"
1_
1`
1X!
0Y!
0Z!
0[!
1"!
1~
1P!
0Q!
0R!
0S!
0F
0G
0H
1I
1.!
1+!
0(!
0s
0q
1o
0m
12
03
04
05
1-!
0,!
0*!
1)!
0'!
0%!
0}
0!!
0r
1p
1n
1a
0O
0P
0Q
1R
01!
0.!
1u
1s
0l
1)
0*
0+
0,
0/!
1,!
0)!
0t
1r
0p
0n
11!
0u
12!
1/!
1v
1t
02!
0v
#520000
0"
0_
0`
#525000
1"
1_
1`
0"!
0~
1}
1$!
1!!
1l
#530000
0"
0_
0`
#535000
1"
1_
1`
1[!
1"!
1~
1S!
1F
1m
15
1&!
1%!
0}
0!!
0a
1O
0l
1,
1n
#540000
0"
0_
0`
#545000
1"
1_
1`
0"!
0~
1}
0$!
1!!
1l
#550000
0"
0_
0`
#555000
1"
1_
1`
1Z!
0[!
1"!
1~
1R!
0S!
0F
1G
0o
0m
14
05
1'!
0%!
0}
0!!
0n
1a
0O
1P
1o
0l
1+
0,
1p
1n
0p
#560000
0"
0_
0`
#565000
1"
1_
1`
0"!
0~
1}
1$!
1!!
1l
#570000
0"
0_
0`
#575000
1"
1_
1`
1[!
1"!
1~
1S!
1F
1(!
1m
15
0&!
1%!
0}
0!!
0a
1O
0o
0l
1,
1)!
0n
1p
#580000
0"
0_
0`
#585000
1"
1_
1`
0"!
0~
1}
0$!
1!!
1l
#590000
0"
0_
0`
#595000
1"
1_
1`
1Y!
0Z!
0[!
1"!
1~
1Q!
0R!
0S!
0F
0G
1H
0+!
0(!
1q
1o
0m
13
04
05
1*!
0)!
0'!
0%!
0}
0!!
0p
1n
1a
0O
0P
1Q
1.!
1+!
0s
0q
0l
1*
0+
0,
0,!
1)!
0r
1p
0n
01!
0.!
1u
1s
0/!
1,!
0t
1r
11!
0u
12!
1/!
1v
1t
02!
0v
#600000
0"
0_
0`
#605000
1"
1_
1`
0"!
0~
1}
1$!
1!!
1l
#610000
0"
0_
0`
#615000
1"
1_
1`
1[!
1"!
1~
1S!
1F
1m
15
1&!
1%!
0}
0!!
0a
1O
0l
1,
1n
#620000
0"
0_
0`
#625000
1"
1_
1`
0"!
0~
1}
0$!
1!!
1l
#630000
0"
0_
0`
#635000
1"
1_
1`
1Z!
0[!
1"!
1~
1R!
0S!
0F
1G
0o
0m
14
05
1'!
0%!
0}
0!!
0n
1a
0O
1P
1q
1o
0l
1+
0,
0p
1n
0s
0q
0r
1p
1u
1s
0t
1r
0u
1v
1t
0v
#640000
0"
0_
0`
#645000
1"
1_
1`
0"!
0~
1}
1$!
1!!
1l
#650000
0"
0_
0`
#655000
1"
1_
1`
1[!
1"!
1~
1S!
1F
1(!
0e
1m
15
0&!
1%!
0}
0!!
0a
1O
0+!
0o
0l
1,
0)!
0n
1.!
1q
0,!
0p
01!
0s
0/!
0r
1u
12!
0t
1v
#660000
0"
0_
0`
#665000
1"
1_
1`
0"!
0~
1}
0$!
1!!
1l
#670000
0"
0_
0`
#675000
1"
1_
1`
1V!
0W!
0X!
0Y!
0Z!
0[!
1"!
1~
1N!
0O!
0P!
0Q!
0R!
0S!
0F
0G
0H
0I
0J
1K
14!
11!
0.!
1+!
0(!
0w
0u
1s
1e
0q
1o
0m
10
01
02
03
04
05
13!
02!
00!
1/!
0-!
1,!
0*!
1)!
0'!
0%!
0}
0!!
0v
1t
1r
1p
1n
1a
0O
0P
0Q
0R
0S
1T
04!
1w
0l
1'
0(
0)
0*
0+
0,
15!
12!
0/!
0,!
0)!
1x
1v
0t
0r
0p
0n
05!
0x
#680000
0"
0_
0`
#685000
1"
1_
1`
0"!
0~
1}
1$!
1!!
1l
#690000
0"
0_
0`
#695000
1"
1_
1`
1[!
1"!
1~
1S!
1F
1m
15
1&!
1%!
0}
0!!
0a
1O
0l
1,
1n
#700000
0"
0_
0`
#705000
1"
1_
1`
0"!
0~
1}
0$!
1!!
1l
#710000
0"
0_
0`
#715000
1"
1_
1`
1Z!
0[!
1"!
1~
1R!
0S!
0F
1G
0o
0m
14
05
1'!
0%!
0}
0!!
0n
1a
0O
1P
1o
0l
1+
0,
1p
1n
0p
#720000
0"
0_
0`
#725000
1"
1_
1`
0"!
0~
1}
1$!
1!!
1l
#730000
0"
0_
0`
#735000
1"
1_
1`
1[!
1"!
1~
1S!
1F
1(!
1m
15
0&!
1%!
0}
0!!
0a
1O
0o
0l
1,
1)!
0n
1p
#740000
0"
0_
0`
#745000
1"
1_
1`
0"!
0~
1}
0$!
1!!
1l
#750000
0"
0_
0`
#755000
1"
1_
1`
1Y!
0Z!
0[!
1"!
1~
1Q!
0R!
0S!
0F
0G
1H
0+!
0(!
1q
1o
0m
13
04
05
1*!
0)!
0'!
0%!
0}
0!!
0p
1n
1a
0O
0P
1Q
1+!
0q
0l
1*
0+
0,
1,!
1)!
1r
1p
0n
0,!
0r
#760000
0"
0_
0`
#765000
1"
1_
1`
0"!
0~
1}
1$!
1!!
1l
#770000
0"
0_
0`
#775000
1"
1_
1`
1[!
1"!
1~
1S!
1F
1m
15
1&!
1%!
0}
0!!
0a
1O
0l
1,
1n
#780000
0"
0_
0`
#785000
1"
1_
1`
0"!
0~
1}
0$!
1!!
1l
#790000
0"
0_
0`
#795000
1"
1_
1`
1Z!
0[!
1"!
1~
1R!
0S!
0F
1G
0o
0m
14
05
1'!
0%!
0}
0!!
0n
1a
0O
1P
1q
1o
0l
1+
0,
0p
1n
0q
1r
1p
0r
#800000
0"
0_
0`
#805000
1"
1_
1`
0"!
0~
1}
1$!
1!!
1l
#810000
0"
0_
0`
#815000
1"
1_
1`
1[!
1"!
1~
1S!
1F
1(!
1m
15
0&!
1%!
0}
0!!
0a
1O
0+!
0o
0l
1,
0)!
0n
1q
1,!
0p
1r
#820000
0"
0_
0`
#825000
1"
1_
1`
0"!
0~
1}
0$!
1!!
1l
#830000
0"
0_
0`
#835000
1"
1_
1`
1X!
0Y!
0Z!
0[!
1"!
1~
1P!
0Q!
0R!
0S!
0F
0G
0H
1I
1.!
1+!
0(!
0s
0q
1o
0m
12
03
04
05
1-!
0,!
0*!
1)!
0'!
0%!
0}
0!!
0r
1p
1n
1a
0O
0P
0Q
1R
0.!
1s
0l
1)
0*
0+
0,
1/!
1,!
0)!
1t
1r
0p
0n
0/!
0t
#840000
0"
0_
0`
#845000
1"
1_
1`
0"!
0~
1}
1$!
1!!
1l
#850000
0"
0_
0`
#855000
1"
1_
1`
1[!
1"!
1~
1S!
1F
1m
15
1&!
1%!
0}
0!!
0a
1O
0l
1,
1n
#860000
0"
0_
0`
#865000
1"
1_
1`
0"!
0~
1}
0$!
1!!
1l
#870000
0"
0_
0`
#875000
1"
1_
1`
1Z!
0[!
1"!
1~
1R!
0S!
0F
1G
0o
0m
14
05
1'!
0%!
0}
0!!
0n
1a
0O
1P
1o
0l
1+
0,
1p
1n
0p
#880000
0"
0_
0`
#885000
1"
1_
1`
0"!
0~
1}
1$!
1!!
1l
#890000
0"
0_
0`
#895000
1"
1_
1`
1[!
1"!
1~
1S!
1F
1(!
1m
15
0&!
1%!
0}
0!!
0a
1O
0o
0l
1,
1)!
0n
1p
#900000
0"
0_
0`
#905000
1"
1_
1`
0"!
0~
1}
0$!
1!!
1l
#910000
0"
0_
0`
#915000
1"
1_
1`
1Y!
0Z!
0[!
1"!
1~
1Q!
0R!
0S!
0F
0G
1H
0+!
0(!
1q
1o
0m
13
04
05
1*!
0)!
0'!
0%!
0}
0!!
0p
1n
1a
0O
0P
1Q
1.!
1+!
0s
0q
0l
1*
0+
0,
0,!
1)!
0r
1p
0n
0.!
1s
1/!
1,!
1t
1r
0/!
0t
#920000
0"
0_
0`
#925000
1"
1_
1`
0"!
0~
1}
1$!
1!!
1l
#930000
0"
0_
0`
#935000
1"
1_
1`
1[!
1"!
1~
1S!
1F
1m
15
1&!
1%!
0}
0!!
0a
1O
0l
1,
1n
#940000
0"
0_
0`
#945000
1"
1_
1`
0"!
0~
1}
0$!
1!!
1l
#950000
0"
0_
0`
#955000
1"
1_
1`
1Z!
0[!
1"!
1~
1R!
0S!
0F
1G
0o
0m
14
05
1'!
0%!
0}
0!!
0n
1a
0O
1P
1q
1o
0l
1+
0,
0p
1n
0s
0q
0r
1p
1s
1t
1r
0t
#960000
0"
0_
0`
#965000
1"
1_
1`
0"!
0~
1}
1$!
1!!
1l
#970000
0"
0_
0`
#975000
1"
1_
1`
1[!
1"!
1~
1S!
1F
1(!
0e
1m
15
0&!
1%!
0}
0!!
0a
1O
0+!
0o
0l
1,
0)!
0n
1.!
1q
0,!
0p
0s
1/!
0r
1t
#980000
0"
0_
0`
#985000
1"
1_
1`
0"!
0~
1}
0$!
1!!
1l
#990000
0"
0_
0`
#995000
1"
1_
1`
1W!
0X!
0Y!
0Z!
0[!
1"!
1~
1O!
0P!
0Q!
0R!
0S!
0F
0G
0H
0I
1J
01!
0.!
1+!
0(!
1u
1s
1e
0q
1o
0m
11
02
03
04
05
10!
0/!
0-!
1,!
0*!
1)!
0'!
0%!
0}
0!!
0t
1r
1p
1n
1a
0O
0P
0Q
0R
1S
14!
11!
0w
0u
0l
1(
0)
0*
0+
0,
02!
1/!
0,!
0)!
0v
1t
0r
0p
0n
04!
1w
15!
12!
1x
1v
05!
0x
#1000000
0"
0_
0`
#1005000
1"
1_
1`
0"!
0~
1}
1$!
1!!
1l
#1010000
0"
0_
0`
#1015000
1"
1_
1`
1[!
1"!
1~
1S!
1F
1m
15
1&!
1%!
0}
0!!
0a
1O
0l
1,
1n
#1020000
0"
0_
0`
#1025000
1"
1_
1`
0"!
0~
1}
0$!
1!!
1l
#1030000
0"
0_
0`
#1035000
1"
1_
1`
1Z!
0[!
1"!
1~
1R!
0S!
0F
1G
0o
0m
14
05
1'!
0%!
0}
0!!
0n
1a
0O
1P
1o
0l
1+
0,
1p
1n
0p
#1040000
0"
0_
0`
#1045000
1"
1_
1`
0"!
0~
1}
1$!
1!!
1l
#1050000
0"
0_
0`
#1055000
1"
1_
1`
1[!
1"!
1~
1S!
1F
1(!
1m
15
0&!
1%!
0}
0!!
0a
1O
0o
0l
1,
1)!
0n
1p
#1060000
0"
0_
0`
#1065000
1"
1_
1`
0"!
0~
1}
0$!
1!!
1l
#1070000
0"
0_
0`
#1075000
1"
1_
1`
1Y!
0Z!
0[!
1"!
1~
1Q!
0R!
0S!
0F
0G
1H
0+!
0(!
1q
1o
0m
13
04
05
1*!
0)!
0'!
0%!
0}
0!!
0p
1n
1a
0O
0P
1Q
1+!
0q
0l
1*
0+
0,
1,!
1)!
1r
1p
0n
0,!
0r
#1080000
0"
0_
0`
#1085000
1"
1_
1`
0"!
0~
1}
1$!
1!!
1l
#1090000
0"
0_
0`
#1095000
1"
1_
1`
1[!
1"!
1~
1S!
1F
1m
15
1&!
1%!
0}
0!!
0a
1O
0l
1,
1n
#1100000
0"
0_
0`
#1105000
1"
1_
1`
0"!
0~
1}
0$!
1!!
1l
#1110000
0"
0_
0`
#1115000
1"
1_
1`
1Z!
0[!
1"!
1~
1R!
0S!
0F
1G
0o
0m
14
05
1'!
0%!
0}
0!!
0n
1a
0O
1P
1q
1o
0l
1+
0,
0p
1n
0q
1r
1p
0r
#1120000
0"
0_
0`
#1125000
1"
1_
1`
0"!
0~
1}
1$!
1!!
1l
#1130000
0"
0_
0`
#1135000
1"
1_
1`
1[!
1"!
1~
1S!
1F
1(!
1m
15
0&!
1%!
0}
0!!
0a
1O
0+!
0o
0l
1,
0)!
0n
1q
1,!
0p
1r
#1140000
0"
0_
0`
#1145000
1"
1_
1`
0"!
0~
1}
0$!
1!!
1l
#1150000
0"
0_
0`
#1155000
1"
1_
1`
1X!
0Y!
0Z!
0[!
1"!
1~
1P!
0Q!
0R!
0S!
0F
0G
0H
1I
1.!
1+!
0(!
0s
0q
1o
0m
12
03
04
05
1-!
0,!
0*!
1)!
0'!
0%!
0}
0!!
0r
1p
1n
1a
0O
0P
0Q
1R
01!
0.!
1u
1s
0l
1)
0*
0+
0,
0/!
1,!
0)!
0t
1r
0p
0n
14!
11!
0w
0u
02!
1/!
0v
1t
04!
1w
15!
12!
1x
1v
05!
0x
#1160000
0"
0_
0`
#1165000
1"
1_
1`
0"!
0~
1}
1$!
1!!
1l
#1170000
0"
0_
0`
#1175000
1"
1_
1`
1[!
1"!
1~
1S!
1F
1m
15
1&!
1%!
0}
0!!
0a
1O
0l
1,
1n
#1180000
0"
0_
0`
#1185000
1"
1_
1`
0"!
0~
1}
0$!
1!!
1l
#1190000
0"
0_
0`
#1195000
1"
1_
1`
1Z!
0[!
1"!
1~
1R!
0S!
0F
1G
0o
0m
14
05
1'!
0%!
0}
0!!
0n
1a
0O
1P
1o
0l
1+
0,
1p
1n
0p
#1200000
0"
0_
0`
#1205000
1"
1_
1`
0"!
0~
1}
1$!
1!!
1l
#1210000
0"
0_
0`
#1215000
1"
1_
1`
1[!
1"!
1~
1S!
1F
1(!
1m
15
0&!
1%!
0}
0!!
0a
1O
0o
0l
1,
1)!
0n
1p
#1220000
0"
0_
0`
#1225000
1"
1_
1`
0"!
0~
1}
0$!
1!!
1l
